<svg width="106" height="43" viewBox="0 0 106 43" fill="none" xmlns="http://www.w3.org/2000/svg">
<g clip-path="url(#clip0)">
<path d="M86.43 42.22H20.96C11.95 42.22 0 33.46 0 20.51C0 9.23 8.28 0 19.57 0H85.04C96.32 0 106 10.63 106 21.91C106 33.19 97.71 42.22 86.43 42.22Z" fill="#979797"/>
<path d="M84.4699 37.89H19.4399C9.26994 37.89 0.939941 29.57 0.939941 19.39C0.939941 9.22 9.25994 0.889999 19.4399 0.889999H84.4699C94.6399 0.889999 102.97 9.21 102.97 19.39C102.97 29.56 94.6399 37.89 84.4699 37.89Z" fill="white" stroke="#979797" stroke-miterlimit="10"/>
<path d="M63 11L53.028 27L43 11L63 11Z" fill="#979797" stroke="#979797" stroke-width="0.5" stroke-miterlimit="10"/>
</g>
<defs>
<clipPath id="clip0">
<rect width="106" height="42.22" fill="white"/>
</clipPath>
</defs>
</svg>
