<svg width="107" height="43" viewBox="0 0 107 43" fill="none" xmlns="http://www.w3.org/2000/svg">
<path d="M86.9 42.9H21.43C12.42 42.9 0.470001 34.1401 0.470001 21.1901C0.470001 9.91006 8.75001 0.680054 20.04 0.680054H85.51C96.79 0.680054 106.48 11.3101 106.48 22.59C106.47 33.87 98.18 42.9 86.9 42.9Z" fill="#0D85B7"/>
<path d="M84.94 38.5601H19.91C9.74 38.5601 1.41 30.2401 1.41 20.0601C1.41 9.89006 9.73 1.56006 19.91 1.56006H84.94C95.11 1.56006 103.44 9.88006 103.44 20.0601C103.44 30.2401 95.11 38.5601 84.94 38.5601Z" fill="white" stroke="#0D85B7" stroke-miterlimit="10"/>
<path d="M21.88 21.1601L21.85 21.2101C21.47 21.9801 21.16 22.3001 20.84 22.3001C20.55 22.3001 20.3 22.0101 20.3 21.7201C20.3 21.5901 20.35 21.4801 20.43 21.3401C21.55 19.6601 22.41 17.4001 22.99 14.7101H21.09C20.82 14.7101 20.63 14.4701 20.63 14.1301C20.63 13.7901 20.82 13.5701 21.09 13.5701H25.97C26.26 13.5701 26.45 13.7901 26.45 14.1301C26.45 14.4801 26.26 14.7101 25.97 14.7101H24.1C23.84 16.1001 23.41 17.5601 22.93 18.7401H24.88C25.62 18.7401 25.98 19.1101 25.98 19.8401V25.7301C25.98 26.4501 25.61 26.8201 24.88 26.8201H23.02C22.3 26.8201 21.92 26.4501 21.92 25.7301V21.0901L21.88 21.1601ZM23.32 19.8301C23.11 19.8301 23 19.9401 23 20.1501V25.4201C23 25.6401 23.1 25.7601 23.32 25.7601H24.57C24.78 25.7601 24.89 25.6501 24.89 25.4201V20.1501C24.89 19.9401 24.78 19.8301 24.57 19.8301H23.32ZM35.08 26.5201C35.34 26.5201 35.51 26.7301 35.51 27.0301C35.51 27.3301 35.33 27.5401 35.08 27.5401H29.05C28.28 27.5401 27.88 27.1401 27.88 26.3601V20.8101C27.19 21.8201 26.87 22.1201 26.55 22.1201C26.26 22.1201 26.02 21.8801 26.02 21.5901C26.02 21.3701 26.05 21.3201 26.37 20.9301C27.57 19.4701 28.72 17.5401 29.48 15.7001H27.98C27.74 15.7001 27.63 15.8101 27.63 16.0501V17.5101C27.63 17.7801 27.39 17.9901 27.07 17.9901C26.75 17.9901 26.53 17.7801 26.53 17.5101V15.7201C26.53 15.0201 26.9 14.6501 27.59 14.6501H29.93C30.09 14.2201 30.3 13.6101 30.46 13.1001C30.57 12.7001 30.72 12.5601 31 12.5601C31.34 12.5601 31.58 12.7701 31.58 13.0901C31.58 13.2801 31.4 13.8701 31.1 14.6601H34.46C35.16 14.6601 35.52 15.0301 35.52 15.7301V17.1501C35.52 17.4201 35.3 17.6101 34.98 17.6101C34.66 17.6101 34.44 17.4201 34.44 17.1501V16.0601C34.44 15.8201 34.31 15.7101 34.07 15.7101H30.68C30.26 16.6901 29.85 17.5501 29.4 18.3201H31.29C31.5 17.8601 31.75 17.1701 31.95 16.6201C32.08 16.2701 32.24 16.1201 32.49 16.1201C32.83 16.1201 33.07 16.3301 33.07 16.6301C33.07 16.9201 32.78 17.6701 32.43 18.3101H34.78C35.02 18.3101 35.18 18.5201 35.18 18.8201C35.18 19.1201 35.02 19.3301 34.78 19.3301H32.27V21.0001H34.43C34.67 21.0001 34.83 21.2101 34.83 21.5101C34.83 21.8001 34.67 21.9901 34.43 21.9901H32.27V23.6701H34.42C34.66 23.6701 34.84 23.8801 34.84 24.1801C34.84 24.4701 34.68 24.6601 34.42 24.6601H32.27V26.5201H35.08V26.5201ZM31.16 19.3301H29.34C29.1 19.3301 28.97 19.4601 28.97 19.7101V21.0001H31.16V19.3301ZM31.16 21.9901H28.97V23.6701H31.16V21.9901ZM31.16 24.6601H28.97V26.1301C28.97 26.3901 29.1 26.5101 29.34 26.5101H31.16V24.6601Z" fill="#0D85B7" stroke="#0D85B7" stroke-width="0.5" stroke-miterlimit="10"/>
<path d="M42.89 15.4701C43.15 15.4701 43.34 15.7101 43.34 16.0101C43.34 16.3101 43.15 16.5201 42.89 16.5201H37.61C37.35 16.5201 37.18 16.3001 37.18 16.0101C37.18 15.7101 37.37 15.4701 37.61 15.4701H42.89ZM41.61 22.3101C42.36 22.3101 42.75 22.6801 42.75 23.4301V26.4701C42.75 27.2101 42.37 27.5701 41.61 27.5701H38.9C38.16 27.5701 37.78 27.2001 37.78 26.4701V23.4301C37.78 22.6801 38.15 22.3101 38.9 22.3101H41.61ZM42.26 17.8301C42.5 17.8301 42.68 18.0401 42.68 18.3101C42.68 18.6001 42.5 18.7901 42.26 18.7901H38.34C38.1 18.7901 37.92 18.6001 37.92 18.3101C37.92 18.0401 38.1 17.8301 38.34 17.8301H42.26ZM42.28 20.0501C42.52 20.0501 42.68 20.2401 42.68 20.5301C42.68 20.8001 42.52 21.0101 42.28 21.0101H38.33C38.09 21.0101 37.93 20.8201 37.93 20.5101C37.93 20.2201 38.09 20.0501 38.33 20.0501H42.28V20.0501ZM42.2 13.2001C42.44 13.2001 42.62 13.4201 42.62 13.7301C42.62 14.0201 42.44 14.2101 42.2 14.2101H38.42C38.16 14.2101 37.99 14.0201 37.99 13.7101C37.99 13.4101 38.17 13.2001 38.42 13.2001H42.2ZM38.9 26.2001C38.9 26.4201 39.01 26.5501 39.24 26.5501H41.29C41.51 26.5501 41.64 26.4201 41.64 26.2001V23.6601C41.64 23.4501 41.51 23.3201 41.29 23.3201H39.24C39.02 23.3201 38.9 23.4301 38.9 23.6601V26.2001ZM45.02 23.3201C45.02 23.8301 44.67 25.4701 44.4 26.3001C44.19 26.9201 44.06 27.0701 43.76 27.0701C43.41 27.0701 43.15 26.8501 43.15 26.5601C43.15 26.4501 43.15 26.4301 43.26 26.1001C43.56 25.2701 43.85 24.1301 43.98 23.3501C44.06 22.9301 44.19 22.7901 44.49 22.7901C44.82 22.7701 45.02 22.9701 45.02 23.3201ZM47.93 14.5901C47.87 15.4101 47.72 16.1401 47.48 16.8201C49 17.5701 49.35 17.8301 49.35 18.1501C49.35 18.4401 49.09 18.7101 48.81 18.7101C48.65 18.7101 48.62 18.6901 48.2 18.4501C47.7 18.1601 47.45 18.0201 47.06 17.8101C46.6 18.7401 45.89 19.6301 44.98 20.3901C44.37 20.9201 44.21 21.0101 43.96 21.0101C43.67 21.0101 43.42 20.7401 43.42 20.4201C43.42 20.1601 43.44 20.1501 44.12 19.6401C44.95 18.9801 45.64 18.1501 46.04 17.3001C45.46 17.0101 44.86 16.7401 44.46 16.5801C44.14 16.4501 44.01 16.3201 44.01 16.0801C44.01 15.7901 44.23 15.5501 44.51 15.5501C44.7 15.5501 45.44 15.8401 46.45 16.3201C46.61 15.8101 46.74 15.2001 46.8 14.5901H44.05C43.76 14.5901 43.59 14.3801 43.59 14.0601C43.59 13.7401 43.77 13.5301 44.05 13.5301H50.4C50.85 13.5301 51.17 13.6101 51.38 13.7901C51.65 14.0101 51.72 14.2501 51.72 15.0501C51.72 16.8401 51.54 18.8901 51.34 19.6101C51.13 20.2801 50.76 20.5101 49.85 20.5101C48.2 20.5101 47.7 20.3701 47.7 19.8701C47.7 19.5301 47.89 19.3301 48.21 19.3301C48.27 19.3301 48.29 19.3301 48.43 19.3601C48.67 19.3901 49.34 19.4601 49.61 19.4601C49.98 19.4601 50.15 19.2801 50.27 18.8001C50.43 18.0801 50.59 16.3501 50.59 15.2501C50.59 14.7901 50.43 14.5901 50.06 14.5901H47.93V14.5901ZM46.87 26.0701C46.87 26.4501 46.95 26.4901 47.75 26.4901C49.17 26.4901 49.17 26.4901 49.24 25.1301C49.26 24.8101 49.4 24.6301 49.69 24.6301C50.06 24.6301 50.25 24.8401 50.25 25.1901C50.25 26.0401 50.07 26.8501 49.85 27.1301C49.58 27.4301 49 27.5501 47.74 27.5501C46.08 27.5501 45.77 27.3601 45.77 26.2701V22.8801C45.77 22.5801 45.98 22.4001 46.3 22.4001C46.64 22.4001 46.88 22.5901 46.88 22.8801V26.0701H46.87ZM47.55 20.7201C48.69 21.7801 49.33 22.5601 49.33 22.9301C49.33 23.2001 49.06 23.4701 48.77 23.4701C48.53 23.4701 48.53 23.4701 47.76 22.5701C47.49 22.2301 46.99 21.7101 46.77 21.4801C46.58 21.2901 46.51 21.1601 46.51 21.0201C46.51 20.7301 46.77 20.4601 47.05 20.4601C47.23 20.4701 47.32 20.5201 47.55 20.7201ZM51.74 24.1001C52.19 25.0801 52.49 25.9201 52.49 26.1801C52.49 26.4801 52.23 26.7401 51.9 26.7401C51.72 26.7401 51.55 26.6401 51.45 26.4801C51.4 26.4201 51.4 26.4001 51.31 26.1401C50.97 25.0801 50.53 23.9801 50.17 23.3201C50.11 23.2101 50.07 23.1101 50.07 23.0201C50.07 22.7601 50.34 22.5401 50.63 22.5401C51 22.5501 51.08 22.6801 51.74 24.1001Z" fill="#0D85B7" stroke="#0D85B7" stroke-width="0.5" stroke-miterlimit="10"/>
<path d="M62.6 13.44C62.6 13.12 62.87 12.9 63.24 12.9C63.59 12.9 63.85 13.12 63.85 13.44V15.33H68.12C68.39 15.33 68.6 15.55 68.6 15.87C68.6 16.19 68.39 16.41 68.12 16.41H63.85V20.06C63.98 20.51 64.06 21.04 64.06 21.56C64.06 23.43 63.69 24.68 62.86 25.61C62.09 26.47 60.97 27.1 59.66 27.39C59.42 27.44 59.21 27.47 59.1 27.47C58.75 27.47 58.54 27.26 58.54 26.91C58.54 26.67 58.65 26.51 58.84 26.41C58.92 26.38 58.94 26.38 59.21 26.31C61.34 25.81 62.51 24.74 62.81 23C62.25 23.77 61.58 24.12 60.65 24.12C59.79 24.12 59.16 23.88 58.63 23.32C58.13 22.79 57.83 21.91 57.83 21.02C57.83 19.16 59.14 17.79 60.89 17.79C61.53 17.79 62.07 17.97 62.6 18.35V16.41H55.08C54.79 16.41 54.6 16.19 54.6 15.87C54.6 15.55 54.79 15.33 55.08 15.33H62.6V13.44ZM62.62 20.64C62.62 19.63 61.87 18.83 60.92 18.83C59.9 18.83 59.06 19.81 59.06 20.99C59.06 22.27 59.75 23.07 60.87 23.07C61.86 23.07 62.61 22.14 62.61 20.89V20.64H62.62Z" fill="#0D85B7" stroke="#0D85B7" stroke-width="0.5" stroke-miterlimit="10"/>
<path d="M73.97 14.9C73.67 14.9 73.46 14.66 73.46 14.34C73.46 14.02 73.67 13.8 73.97 13.8H81.41C82.03 13.8 82.43 14.04 82.43 14.41C82.43 14.57 82.33 14.76 82.19 14.92C82.06 15.06 82.06 15.06 81.52 15.4C80.29 16.22 78.56 17.4301 75.97 19.3501C77.14 18.9301 78.37 18.73 79.62 18.73C80.74 18.73 81.73 18.94 82.58 19.34C83.89 19.95 84.55 21.0201 84.55 22.4901C84.55 25.2101 82.09 26.91 78.16 26.91C76.7 26.91 75.78 26.69 75.1 26.19C74.56 25.79 74.24 25.15 74.24 24.48C74.24 23.3 75.42 22.37 76.95 22.37C78.81 22.37 80.04 23.52 80.36 25.59C82.3 25.01 83.23 24.01 83.23 22.53C83.23 20.71 81.9 19.7401 79.39 19.7401C78.01 19.7401 76.27 20.0601 75.2 20.4901C74.72 20.7001 74.21 21.05 73.5 21.67C73.26 21.88 73.12 21.94 72.94 21.94C72.6 21.94 72.3 21.6201 72.3 21.2701C72.3 21.0801 72.4 20.89 72.6 20.73C74.25 19.4 78.91 15.94 80.46 14.9H73.97ZM78.38 23.91C78.01 23.59 77.45 23.3801 76.96 23.3801C76.11 23.3801 75.47 23.9101 75.47 24.6001C75.47 25.4001 76.46 25.9 78.06 25.9C78.51 25.9 78.6 25.9001 79.21 25.8201C79.03 24.8401 78.81 24.29 78.38 23.91Z" fill="#0D85B7" stroke="#0D85B7" stroke-width="0.5" stroke-miterlimit="10"/>
</svg>
