<svg width="103" height="38" viewBox="0 0 103 38" fill="none" xmlns="http://www.w3.org/2000/svg">
<path d="M83.94 37.37H18.91C8.74 37.37 0.410004 29.05 0.410004 18.87C0.410004 8.68999 8.73 0.369995 18.91 0.369995H83.94C94.11 0.369995 102.44 8.68999 102.44 18.87C102.44 29.04 94.11 37.37 83.94 37.37Z" fill="#0D85B7"/>
<path d="M20.88 19.96L20.85 20.01C20.47 20.78 20.16 21.1 19.84 21.1C19.55 21.1 19.3 20.81 19.3 20.52C19.3 20.39 19.35 20.28 19.43 20.14C20.55 18.46 21.41 16.2 21.99 13.51H20.09C19.82 13.51 19.63 13.27 19.63 12.93C19.63 12.59 19.82 12.37 20.09 12.37H24.97C25.26 12.37 25.45 12.59 25.45 12.93C25.45 13.28 25.26 13.51 24.97 13.51H23.1C22.84 14.9 22.41 16.36 21.93 17.54H23.88C24.62 17.54 24.98 17.91 24.98 18.64V24.53C24.98 25.25 24.61 25.62 23.88 25.62H22.02C21.3 25.62 20.92 25.25 20.92 24.53V19.89L20.88 19.96ZM22.32 18.64C22.11 18.64 22 18.75 22 18.96V24.23C22 24.45 22.1 24.57 22.32 24.57H23.57C23.78 24.57 23.89 24.46 23.89 24.23V18.96C23.89 18.75 23.78 18.64 23.57 18.64H22.32ZM34.08 25.33C34.34 25.33 34.51 25.54 34.51 25.84C34.51 26.14 34.33 26.35 34.08 26.35H28.05C27.28 26.35 26.88 25.95 26.88 25.17V19.62C26.19 20.63 25.87 20.93 25.55 20.93C25.26 20.93 25.02 20.69 25.02 20.4C25.02 20.18 25.05 20.13 25.37 19.74C26.57 18.28 27.72 16.35 28.48 14.51H26.98C26.74 14.51 26.63 14.62 26.63 14.86V16.32C26.63 16.59 26.39 16.8 26.07 16.8C25.75 16.8 25.53 16.59 25.53 16.32V14.53C25.53 13.83 25.9 13.46 26.59 13.46H28.93C29.09 13.03 29.3 12.42 29.46 11.91C29.57 11.51 29.72 11.37 30 11.37C30.34 11.37 30.58 11.58 30.58 11.9C30.58 12.09 30.4 12.68 30.1 13.47H33.46C34.16 13.47 34.52 13.84 34.52 14.54V15.96C34.52 16.23 34.3 16.42 33.98 16.42C33.66 16.42 33.44 16.23 33.44 15.96V14.87C33.44 14.63 33.31 14.52 33.07 14.52H29.68C29.26 15.5 28.85 16.36 28.4 17.13H30.29C30.5 16.67 30.75 15.98 30.95 15.43C31.08 15.08 31.24 14.93 31.49 14.93C31.83 14.93 32.07 15.14 32.07 15.44C32.07 15.73 31.78 16.48 31.43 17.12H33.78C34.02 17.12 34.18 17.33 34.18 17.63C34.18 17.93 34.02 18.14 33.78 18.14H31.27V19.8H33.43C33.67 19.8 33.83 20.01 33.83 20.31C33.83 20.6 33.67 20.79 33.43 20.79H31.27V22.47H33.42C33.66 22.47 33.84 22.68 33.84 22.98C33.84 23.27 33.68 23.46 33.42 23.46H31.27V25.32H34.08V25.33ZM30.16 18.14H28.34C28.1 18.14 27.97 18.27 27.97 18.52V19.8H30.16V18.14ZM30.16 20.8H27.97V22.48H30.16V20.8ZM30.16 23.47H27.97V24.94C27.97 25.2 28.1 25.32 28.34 25.32H30.16V23.47Z" fill="white" stroke="white" stroke-width="0.5" stroke-miterlimit="10"/>
<path d="M41.89 14.28C42.15 14.28 42.34 14.52 42.34 14.82C42.34 15.12 42.15 15.33 41.89 15.33H36.61C36.35 15.33 36.18 15.11 36.18 14.82C36.18 14.52 36.37 14.28 36.61 14.28H41.89ZM40.61 21.12C41.36 21.12 41.75 21.49 41.75 22.24V25.28C41.75 26.02 41.37 26.38 40.61 26.38H37.9C37.16 26.38 36.78 26.01 36.78 25.28V22.24C36.78 21.49 37.15 21.12 37.9 21.12H40.61ZM41.26 16.63C41.5 16.63 41.68 16.84 41.68 17.11C41.68 17.4 41.5 17.59 41.26 17.59H37.34C37.1 17.59 36.92 17.4 36.92 17.11C36.92 16.84 37.1 16.63 37.34 16.63H41.26ZM41.28 18.86C41.52 18.86 41.68 19.05 41.68 19.34C41.68 19.61 41.52 19.82 41.28 19.82H37.33C37.09 19.82 36.93 19.63 36.93 19.32C36.93 19.03 37.09 18.86 37.33 18.86H41.28V18.86ZM41.2 12.01C41.44 12.01 41.62 12.23 41.62 12.54C41.62 12.83 41.44 13.02 41.2 13.02H37.42C37.16 13.02 36.99 12.83 36.99 12.52C36.99 12.22 37.17 12.01 37.42 12.01H41.2ZM37.9 25.01C37.9 25.23 38.01 25.36 38.24 25.36H40.29C40.51 25.36 40.64 25.23 40.64 25.01V22.47C40.64 22.26 40.51 22.13 40.29 22.13H38.24C38.02 22.13 37.9 22.24 37.9 22.47V25.01ZM44.02 22.12C44.02 22.63 43.67 24.27 43.4 25.1C43.19 25.72 43.06 25.87 42.76 25.87C42.41 25.87 42.15 25.65 42.15 25.36C42.15 25.25 42.15 25.23 42.26 24.9C42.56 24.07 42.85 22.93 42.98 22.15C43.06 21.73 43.19 21.59 43.49 21.59C43.82 21.58 44.02 21.77 44.02 22.12ZM46.93 13.4C46.87 14.22 46.72 14.95 46.48 15.63C48 16.38 48.35 16.64 48.35 16.96C48.35 17.25 48.09 17.52 47.81 17.52C47.65 17.52 47.62 17.5 47.2 17.26C46.7 16.97 46.45 16.83 46.06 16.62C45.6 17.55 44.89 18.44 43.98 19.2C43.37 19.73 43.21 19.82 42.96 19.82C42.67 19.82 42.42 19.55 42.42 19.23C42.42 18.97 42.44 18.96 43.12 18.45C43.95 17.79 44.64 16.96 45.04 16.11C44.46 15.82 43.86 15.55 43.46 15.39C43.14 15.26 43.01 15.13 43.01 14.89C43.01 14.6 43.23 14.36 43.51 14.36C43.7 14.36 44.44 14.65 45.45 15.13C45.61 14.62 45.74 14.01 45.8 13.4H43.05C42.76 13.4 42.59 13.19 42.59 12.87C42.59 12.55 42.77 12.34 43.05 12.34H49.4C49.85 12.34 50.17 12.42 50.38 12.6C50.65 12.82 50.72 13.06 50.72 13.86C50.72 15.65 50.54 17.7 50.34 18.42C50.13 19.09 49.76 19.32 48.85 19.32C47.2 19.32 46.7 19.18 46.7 18.68C46.7 18.34 46.89 18.14 47.21 18.14C47.27 18.14 47.29 18.14 47.43 18.17C47.67 18.2 48.34 18.27 48.61 18.27C48.98 18.27 49.15 18.09 49.27 17.61C49.43 16.89 49.59 15.16 49.59 14.06C49.59 13.6 49.43 13.4 49.06 13.4H46.93V13.4ZM45.87 24.88C45.87 25.26 45.95 25.3 46.75 25.3C48.17 25.3 48.17 25.3 48.24 23.94C48.26 23.62 48.4 23.44 48.69 23.44C49.06 23.44 49.25 23.65 49.25 24C49.25 24.85 49.07 25.66 48.85 25.94C48.58 26.24 48 26.36 46.74 26.36C45.08 26.36 44.77 26.17 44.77 25.08V21.69C44.77 21.39 44.98 21.21 45.3 21.21C45.64 21.21 45.88 21.4 45.88 21.69V24.88H45.87ZM46.55 19.53C47.69 20.59 48.33 21.37 48.33 21.74C48.33 22.01 48.06 22.28 47.77 22.28C47.53 22.28 47.53 22.28 46.76 21.38C46.49 21.04 45.99 20.52 45.77 20.29C45.58 20.1 45.51 19.97 45.51 19.83C45.51 19.54 45.77 19.27 46.05 19.27C46.23 19.28 46.32 19.32 46.55 19.53ZM50.74 22.91C51.19 23.89 51.49 24.73 51.49 24.99C51.49 25.29 51.23 25.55 50.9 25.55C50.72 25.55 50.55 25.45 50.45 25.29C50.4 25.23 50.4 25.21 50.31 24.95C49.97 23.89 49.53 22.79 49.17 22.13C49.11 22.02 49.07 21.92 49.07 21.83C49.07 21.57 49.34 21.35 49.63 21.35C50 21.36 50.08 21.48 50.74 22.91Z" fill="white" stroke="white" stroke-width="0.5" stroke-miterlimit="10"/>
<path d="M61.6 12.25C61.6 11.93 61.87 11.71 62.24 11.71C62.59 11.71 62.85 11.93 62.85 12.25V14.14H67.12C67.39 14.14 67.6 14.3599 67.6 14.6799C67.6 14.9999 67.39 15.22 67.12 15.22H62.85V18.8699C62.98 19.3199 63.06 19.8499 63.06 20.3699C63.06 22.2399 62.69 23.49 61.86 24.42C61.09 25.28 59.97 25.91 58.66 26.2C58.42 26.25 58.21 26.28 58.1 26.28C57.75 26.28 57.54 26.07 57.54 25.72C57.54 25.48 57.65 25.32 57.84 25.22C57.92 25.19 57.94 25.1899 58.21 25.1199C60.34 24.6199 61.51 23.55 61.81 21.81C61.25 22.58 60.58 22.9299 59.65 22.9299C58.79 22.9299 58.16 22.69 57.63 22.13C57.13 21.6 56.83 20.72 56.83 19.83C56.83 17.97 58.14 16.6 59.89 16.6C60.53 16.6 61.07 16.78 61.6 17.16V15.22H54.08C53.79 15.22 53.6 14.9999 53.6 14.6799C53.6 14.3599 53.79 14.14 54.08 14.14H61.6V12.25ZM61.62 19.45C61.62 18.44 60.87 17.64 59.92 17.64C58.9 17.64 58.06 18.62 58.06 19.8C58.06 21.08 58.75 21.88 59.87 21.88C60.86 21.88 61.61 20.95 61.61 19.7V19.45H61.62Z" fill="white" stroke="white" stroke-width="0.5" stroke-miterlimit="10"/>
<path d="M72.97 13.71C72.67 13.71 72.46 13.47 72.46 13.15C72.46 12.83 72.67 12.61 72.97 12.61H80.41C81.03 12.61 81.43 12.85 81.43 13.22C81.43 13.38 81.33 13.57 81.19 13.73C81.06 13.87 81.06 13.87 80.52 14.21C79.29 15.03 77.56 16.24 74.97 18.16C76.14 17.74 77.37 17.54 78.62 17.54C79.74 17.54 80.73 17.75 81.58 18.15C82.89 18.76 83.55 19.83 83.55 21.3C83.55 24.02 81.09 25.72 77.16 25.72C75.7 25.72 74.78 25.5 74.1 25C73.56 24.6 73.24 23.96 73.24 23.29C73.24 22.11 74.42 21.18 75.95 21.18C77.81 21.18 79.04 22.33 79.36 24.4C81.3 23.82 82.23 22.82 82.23 21.34C82.23 19.52 80.9 18.55 78.39 18.55C77.01 18.55 75.27 18.87 74.2 19.3C73.72 19.51 73.21 19.86 72.5 20.48C72.26 20.69 72.12 20.75 71.94 20.75C71.6 20.75 71.3 20.43 71.3 20.08C71.3 19.89 71.4 19.7 71.6 19.54C73.25 18.21 77.91 14.75 79.46 13.71H72.97ZM77.38 22.72C77.01 22.4 76.45 22.19 75.96 22.19C75.11 22.19 74.47 22.72 74.47 23.41C74.47 24.21 75.46 24.71 77.06 24.71C77.51 24.71 77.6 24.71 78.21 24.63C78.03 23.65 77.81 23.1 77.38 22.72Z" fill="white" stroke="white" stroke-width="0.5" stroke-miterlimit="10"/>
</svg>
