<svg width="30" height="10" viewBox="0 0 30 10" fill="none" xmlns="http://www.w3.org/2000/svg">
<path d="M5.20001 5.40002H7.94L8.32999 4.82004C8.36999 4.76004 8.39999 4.73004 8.45999 4.73004C8.50999 4.73004 8.55001 4.75002 8.60001 4.80002L9.34 5.46002C9.38 5.50002 9.42999 5.57002 9.42999 5.65002C9.42999 5.77002 9.31999 5.79004 9.20999 5.79004H5.20001V7.91003C5.20001 8.13003 5.22 9.09004 5.22 9.29004C5.22 9.44004 5.22001 9.64005 4.70001 9.64005C4.46001 9.64005 4.44 9.56003 4.44 9.37003C4.44 9.14003 4.47 8.15003 4.47 7.94003V5.79004H1.19C0.990002 5.79004 0.810013 5.79002 0.420013 5.83002L0.25 5.35004C0.54 5.37004 0.84 5.39005 1.25 5.39005H4.47V1.61002H1.76999C1.56999 1.61002 1.39 1.61002 1 1.65002L0.829987 1.17004C1.11999 1.19004 1.42999 1.21002 1.82999 1.21002H7.35001L7.73999 0.630035C7.77999 0.570035 7.81 0.540039 7.87 0.540039C7.92 0.540039 7.96001 0.560016 8.01001 0.610016L8.75 1.28003C8.79 1.31003 8.84 1.39002 8.84 1.46002C8.84 1.59002 8.72 1.61002 8.62 1.61002H5.19V5.40002H5.20001ZM1.42999 2.17004C1.54999 2.25004 3.13 3.23004 3.13 4.29004C3.13 4.72004 2.87 4.87003 2.72 4.87003C2.48 4.87003 2.41999 4.65004 2.29999 4.26004C1.99999 3.28004 1.52001 2.57004 1.32001 2.29004L1.42999 2.17004ZM8.31 2.56003C8.52 2.67003 8.54999 2.72004 8.54999 2.79004C8.54999 2.95004 8.41 2.95004 8.12 2.95004C7.16 4.31004 6.55001 4.76003 6.23001 5.00003L6.10999 4.89005C7.32999 2.99005 7.49999 2.25004 7.51999 2.13004L8.31 2.56003Z" fill="#231815"/>
<path d="M17.74 3.14001L17.98 2.78C18.01 2.74 18.04 2.69 18.09 2.69C18.14 2.69 18.19 2.71 18.23 2.75L18.8 3.20999C18.86 3.25999 18.9 3.3 18.9 3.37C18.9 3.45 18.86 3.50999 18.55 3.70999V8.01001C18.55 8.22001 18.59 9.15001 18.59 9.35001C18.59 9.44001 18.59 9.64999 18.09 9.64999C17.84 9.64999 17.84 9.56999 17.84 9.35999V8.98999H11.72V9.32001C11.72 9.46001 11.72 9.64999 11.24 9.64999C11 9.64999 10.97 9.54999 10.97 9.42999C10.97 9.36999 11.01 8.22001 11.01 8.07001V3.92999C11.01 3.27999 11 3.06001 10.97 2.73001L11.84 3.14001H13.84C14.05 2.67001 14.3 2.00001 14.42 1.54001H11.12C10.92 1.54001 10.74 1.55 10.35 1.59L10.18 1.10001C10.46 1.12001 10.78 1.14001 11.17 1.14001H17.89L18.27 0.600006C18.3 0.560006 18.33 0.51001 18.4 0.51001C18.44 0.51001 18.48 0.529987 18.54 0.579987L19.25 1.23001C19.3 1.27001 19.34 1.34 19.34 1.41C19.34 1.55 19.19 1.54999 19.12 1.54999H15.34C15 2.17999 14.6 2.75999 14.26 3.14999H17.74V3.14001ZM11.71 3.54001V8.60001H13.22V3.54001H11.71ZM13.89 3.54001V4.94H15.63V3.54001H13.89ZM13.89 5.32999V6.75H15.63V5.32999H13.89ZM13.89 7.14999V8.60001H15.63V7.14999H13.89ZM16.3 3.54001V8.60001H17.84V3.54001H16.3Z" fill="#231815"/>
<path d="M27.84 1.09003L28.08 0.76004C28.12 0.70004 28.15 0.670044 28.2 0.670044C28.25 0.670044 28.31 0.710021 28.34 0.740021L28.91 1.19003C28.96 1.24003 29.01 1.28004 29.01 1.35004C29.01 1.42004 28.99 1.47002 28.67 1.68002V7.95004C28.67 8.16004 28.7 9.07003 28.7 9.25003C28.7 9.36003 28.7 9.59003 28.17 9.59003C27.96 9.59003 27.94 9.51002 27.94 9.36002V9.02002H21.4V9.31003C21.4 9.46003 21.4 9.64005 20.91 9.64005C20.72 9.64005 20.64 9.58004 20.64 9.39005C20.64 9.18005 20.68 8.25002 20.68 8.05002V1.83002C20.68 1.66002 20.67 1.02004 20.64 0.700043L21.51 1.10004H27.84V1.09003ZM21.41 1.49002V8.62003H27.95V1.49002H21.41ZM27.35 2.40002C27.45 2.45002 27.56 2.50004 27.56 2.60004C27.56 2.74004 27.4 2.76003 27.14 2.78003C26.45 4.36003 25.49 5.43004 25.11 5.85004C26.06 6.37004 27.25 7.12003 27.25 7.72003C27.25 7.88003 27.15 8.05002 26.97 8.05002C26.78 8.05002 26.73 8.00003 26.29 7.59003C25.78 7.12003 25.24 6.70003 24.66 6.31003C23.32 7.60003 22.28 8.05003 21.8 8.25003L21.71 8.12003C22.83 7.32003 23.53 6.69002 24.18 5.99002C23.44 5.53002 23.01 5.28003 21.95 4.72003L22.02 4.58002C22.6 4.76002 23.55 5.06003 24.56 5.56003C24.79 5.29003 26.05 3.79004 26.55 2.04004L27.35 2.40002ZM21.99 2.20004C22.59 2.56004 23.44 3.18004 23.44 3.98004C23.44 4.19004 23.32 4.41003 23.08 4.41003C22.86 4.41003 22.84 4.34003 22.62 3.78003C22.43 3.27003 22.15 2.73004 21.87 2.32004L21.99 2.20004ZM23.75 1.88004C24.41 2.26004 25.19 2.97002 25.19 3.65002C25.19 3.94002 25.01 4.11002 24.84 4.11002C24.65 4.11002 24.63 4.05003 24.42 3.47003C24.29 3.11003 23.99 2.47002 23.64 2.02002L23.75 1.88004Z" fill="#231815"/>
</svg>
