<svg width="30" height="10" viewBox="0 0 30 10" fill="none" xmlns="http://www.w3.org/2000/svg">
<path d="M10.07 8.61993C9.85001 8.68993 9.50998 8.80994 9.34998 9.24994C8.96998 9.09994 7.85999 8.66994 6.85999 7.84995C6.46999 8.17994 5.61002 8.90993 3.90002 9.33994L3.83002 9.19995C5.43002 8.50995 6.14001 7.77994 6.45001 7.46994C5.72001 6.67994 5.33998 5.99995 5.09998 5.00995C4.86998 5.00995 4.59999 5.01993 4.35999 5.04993L4.17999 4.58994C3.85999 4.79994 3.71003 4.88994 3.03003 5.24994V7.04993C3.03003 7.25993 3.04999 8.18994 3.04999 8.37994C3.04999 8.94994 2.97003 9.22994 2.09003 9.30994C2.05003 8.83994 1.93998 8.79993 0.97998 8.48993V8.33994L2.14001 8.36993C2.36001 8.37993 2.35999 8.25994 2.35999 8.15994V5.59995C2.07999 5.73994 2.00999 5.77995 1.42999 6.06995C1.41999 6.24995 1.41002 6.39993 1.27002 6.39993C1.21002 6.39993 1.15002 6.36993 1.08002 6.17993L0.789978 5.42993C1.27998 5.31993 1.50999 5.26994 2.35999 4.96994V2.69995H1.71997C1.53997 2.69995 1.32997 2.69993 0.969971 2.73993L0.799988 2.25995C1.08999 2.27995 1.39998 2.29993 1.78998 2.29993H2.37V1.09995C2.37 0.659945 2.33001 0.269941 2.32001 0.189941L3.15002 0.289948C3.24002 0.299948 3.40002 0.329951 3.40002 0.449951C3.40002 0.529951 3.36998 0.59994 3.03998 0.71994V2.30994H3.54999L3.81 1.88995C3.84 1.83995 3.87999 1.79993 3.92999 1.79993C3.98999 1.79993 4.03001 1.83994 4.07001 1.87994L4.57001 2.39993C4.62001 2.44993 4.65997 2.50995 4.65997 2.56995C4.65997 2.70995 4.47998 2.70993 4.41998 2.70993H3.04999V4.72995C3.82999 4.41995 4.12002 4.29993 4.65002 4.07993L4.71997 4.22995C4.52997 4.36995 4.42002 4.44994 4.21002 4.58994C4.35002 4.59994 4.74997 4.62994 5.21997 4.62994H7.96002L8.22998 4.32993C8.27998 4.26993 8.30999 4.24994 8.35999 4.24994C8.40999 4.24994 8.44 4.26995 8.5 4.31995L9.03998 4.83994C9.07998 4.87994 9.13 4.94995 9.13 5.00995C9.13 5.13995 9.08002 5.15995 8.65002 5.25995C8.04002 6.49995 7.82002 6.87994 7.33002 7.40994C8.04002 7.86994 8.93998 8.26993 10.1 8.45993V8.61993H10.07ZM7.32001 0.909943L7.53003 0.609924C7.57003 0.559924 7.60997 0.519928 7.65997 0.519928C7.70997 0.519928 7.75999 0.559935 7.79999 0.589935L8.29999 0.999939C8.34999 1.03994 8.40997 1.08994 8.40997 1.15994C8.40997 1.26994 8.38002 1.28995 8.08002 1.44995V2.96994C8.08002 3.17994 8.08999 3.26993 8.37 3.26993C8.62 3.26993 9.03998 3.26993 9.09998 3.23993C9.19998 3.18993 9.23002 3.09995 9.27002 2.97995C9.33002 2.78995 9.37 2.65994 9.5 2.12994L9.65997 2.13995C9.70997 3.00995 9.71998 3.09993 9.78998 3.17993C9.92998 3.32993 9.96997 3.37995 9.96997 3.50995C9.96997 3.90995 9.42001 3.90994 8.51001 3.90994C7.46001 3.90994 7.40002 3.90994 7.40002 3.08994V1.31995H5.84998C5.77998 3.12995 4.92 3.83994 4.44 4.15994L4.32001 4.03995C4.83001 3.21995 5.16998 2.52995 5.16998 1.13995C5.16998 0.949954 5.16001 0.889938 5.14001 0.529938L5.91998 0.929932H7.32001V0.909943ZM5.34998 5.01993C5.79998 6.14993 6.43001 6.72993 6.82001 7.04993C7.32001 6.42993 7.56999 5.93993 7.92999 5.01993H5.34998Z" fill="#231815"/>
<path d="M12.75 7.37997C12.84 7.43997 12.94 7.51996 12.94 7.61996C12.94 7.75996 12.79 7.75998 12.74 7.75998C12.68 7.75998 12.6 7.74996 12.52 7.73996C12.1 8.22996 11.43 8.64997 10.76 8.93997L10.67 8.80997C11.42 8.08997 11.75 7.76996 12.16 7.01996L12.75 7.37997ZM14.85 0.699982L15.08 0.379974C15.11 0.329974 15.15 0.289978 15.2 0.289978C15.25 0.289978 15.29 0.319976 15.33 0.349976L15.83 0.789978C15.88 0.829978 15.93 0.879982 15.93 0.949982C15.93 1.00998 15.9 1.08996 15.61 1.26996V2.22998C15.61 2.35998 15.64 2.99997 15.64 3.05997C15.64 3.14997 15.64 3.39996 15.15 3.39996C14.93 3.39996 14.93 3.30998 14.93 3.16998H14.08C14.17 3.17998 14.26 3.19996 14.26 3.29996C14.26 3.39996 14.15 3.45997 13.97 3.49997V3.92996H15.27L15.6 3.44998C15.62 3.40998 15.66 3.35995 15.72 3.35995C15.78 3.35995 15.83 3.40996 15.86 3.42996L16.48 4.02997C16.52 4.05997 16.56 4.11996 16.56 4.17996C16.56 4.32996 16.43 4.32996 16.35 4.32996H11.7C11.51 4.32996 11.32 4.32996 10.93 4.36996L10.76 3.88998C11.05 3.90998 11.36 3.92996 11.76 3.92996H13.32C13.32 3.70996 13.32 3.46996 13.29 3.17996H12.4C12.41 3.28996 12.41 3.47998 11.95 3.47998C11.69 3.47998 11.68 3.36998 11.68 3.22998C11.68 3.06998 11.71 2.37996 11.71 2.23996V1.42996C11.71 1.16996 11.69 0.609978 11.67 0.289978L12.53 0.719971H14.85V0.699982ZM13.95 7.67996C13.95 7.80996 13.97 8.37996 13.97 8.48996C13.97 9.10996 13.75 9.27995 13.05 9.35995C13.04 8.95996 12.95 8.91998 12.21 8.59998V8.44998L13.02 8.47998C13.3 8.48998 13.3 8.34998 13.3 8.22998V6.72998H12.3C12.3 6.96998 12.04 6.99997 11.85 6.99997C11.58 6.99997 11.58 6.87996 11.58 6.79996C11.58 6.70996 11.62 5.97998 11.62 5.81998V5.36996C11.62 4.92996 11.6 4.76998 11.57 4.50998L12.42 4.91998H14.87L15.09 4.60995C15.13 4.55995 15.16 4.52997 15.21 4.52997C15.27 4.52997 15.34 4.57997 15.34 4.58997L15.85 5.00998C15.91 5.06998 15.94 5.09998 15.94 5.16998C15.94 5.22998 15.92 5.28997 15.63 5.46997V5.85995C15.63 5.98995 15.66 6.53996 15.66 6.64996C15.66 6.82996 15.57 6.98996 15.17 6.98996C14.94 6.98996 14.94 6.90996 14.94 6.73996H13.95V7.67996ZM12.31 5.31998V6.33997H14.95V5.31998H12.31ZM12.38 1.08997V1.71997H14.93V1.08997H12.38ZM12.38 2.11996V2.75998H14.93V2.11996H12.38ZM14.33 7.20996C14.82 7.31996 15.88 7.56997 15.88 8.27997C15.88 8.52997 15.73 8.67996 15.57 8.67996C15.44 8.67996 15.41 8.63997 15.16 8.27997C15.04 8.10997 14.69 7.62995 14.27 7.35995L14.33 7.20996ZM19.78 6.26996C19.93 6.37996 19.97 6.40997 19.97 6.49997C19.97 6.67997 19.83 6.66998 19.51 6.63998C18.65 7.53998 17.32 8.76996 15.45 9.29996L15.39 9.15997C17.62 7.81997 18.87 6.24997 19.13 5.77997L19.78 6.26996ZM19.25 0.679962C19.4 0.779962 19.47 0.829973 19.47 0.909973C19.47 1.07997 19.22 1.06997 19.02 1.05997C17.85 2.27997 17.07 2.84996 16.13 3.23996L16.04 3.09998C17.74 1.61998 18.44 0.55998 18.57 0.22998L19.25 0.679962ZM19.51 3.34998C19.68 3.46998 19.73 3.49997 19.73 3.58997C19.73 3.76997 19.53 3.74996 19.29 3.73996C18.11 4.91996 17.25 5.51996 16.15 5.92996L16.08 5.78998C17.34 4.85998 18.64 3.45997 18.89 2.90997L19.51 3.34998Z" fill="#231815"/>
<path d="M28.41 0.769958L28.65 0.439972C28.69 0.379972 28.72 0.349976 28.77 0.349976C28.82 0.349976 28.88 0.389983 28.91 0.419983L29.48 0.869965C29.53 0.919965 29.58 0.959968 29.58 1.02997C29.58 1.09997 29.56 1.14995 29.24 1.35995V7.62997C29.24 7.83997 29.27 8.74996 29.27 8.92996C29.27 9.03996 29.27 9.26996 28.74 9.26996C28.53 9.26996 28.51 9.18998 28.51 9.03998V8.69998H21.97V8.98996C21.97 9.13996 21.97 9.31998 21.48 9.31998C21.29 9.31998 21.21 9.25998 21.21 9.06998C21.21 8.85998 21.25 7.92998 21.25 7.72998V1.50998C21.25 1.33998 21.24 0.699974 21.21 0.379974L22.08 0.779968H28.41V0.769958ZM21.97 1.15997V8.28998H28.51V1.15997H21.97ZM27.91 2.06998C28.01 2.11998 28.12 2.16996 28.12 2.26996C28.12 2.40996 27.96 2.42998 27.7 2.44998C27.01 4.02998 26.05 5.09996 25.67 5.51996C26.62 6.03996 27.81 6.78997 27.81 7.37997C27.81 7.53997 27.71 7.70996 27.53 7.70996C27.34 7.70996 27.29 7.65997 26.85 7.24997C26.34 6.77997 25.8 6.35997 25.22 5.96997C23.88 7.25997 22.84 7.70997 22.36 7.90997L22.27 7.77997C23.39 6.97997 24.09 6.34996 24.74 5.64996C24 5.18996 23.57 4.93997 22.51 4.37997L22.58 4.23996C23.16 4.41996 24.11 4.71997 25.12 5.21997C25.35 4.94997 26.61 3.44998 27.11 1.69998L27.91 2.06998ZM22.56 1.87997C23.16 2.23997 24.01 2.85997 24.01 3.65997C24.01 3.86997 23.89 4.08997 23.65 4.08997C23.43 4.08997 23.41 4.01996 23.19 3.45996C23 2.94996 22.72 2.40997 22.44 1.99997L22.56 1.87997ZM24.31 1.55997C24.97 1.93997 25.75 2.64996 25.75 3.32996C25.75 3.61996 25.57 3.78998 25.4 3.78998C25.21 3.78998 25.19 3.72998 24.98 3.13998C24.85 2.77998 24.55 2.13997 24.2 1.68997L24.31 1.55997Z" fill="#231815"/>
</svg>
