<svg width="64" height="43" viewBox="0 0 64 43" fill="none" xmlns="http://www.w3.org/2000/svg">
<path d="M43.69 42.2899H21.5C12.49 42.2899 0.539978 33.5299 0.539978 20.5799C0.539978 9.29993 8.81999 0.0699463 20.11 0.0699463H42.3C53.58 0.0699463 63.27 10.7 63.27 21.9799C63.26 33.2599 54.97 42.2899 43.69 42.2899Z" fill="#0D85B7"/>
<path d="M41.73 37.95H19.98C9.80998 37.95 1.47998 29.63 1.47998 19.45C1.47998 9.27995 9.80998 0.949951 19.98 0.949951H41.73C51.9 0.949951 60.23 9.27995 60.23 19.45C60.23 29.63 51.91 37.95 41.73 37.95Z" fill="white" stroke="#0D85B7" stroke-miterlimit="10"/>
<path d="M20.01 26.79L30.83 12.11L41.7 26.79H20.01Z" fill="#0D85B7" stroke="#0D85B7" stroke-width="0.5" stroke-miterlimit="10"/>
</svg>
