<svg width="60" height="38" viewBox="0 0 60 38" fill="none" xmlns="http://www.w3.org/2000/svg">
<path d="M40.55 37.62H18.8C8.62999 37.62 0.299988 29.29 0.299988 19.12C0.299988 8.95 8.62999 0.619995 18.8 0.619995H40.55C50.72 0.619995 59.05 8.93999 59.05 19.12C59.05 29.3 50.73 37.62 40.55 37.62Z" fill="#0D85B7"/>
<path d="M40.78 13.84L29.9099 28.52L19.09 13.84H40.78Z" fill="white" stroke="white" stroke-width="0.5" stroke-miterlimit="10"/>
</svg>
