<svg width="64" height="43" viewBox="0 0 64 43" fill="none" xmlns="http://www.w3.org/2000/svg">
<path d="M43.48 42.22H21.29C12.28 42.22 0.329956 33.46 0.329956 20.51C0.329956 9.22998 8.60996 0 19.9 0H42.09C53.37 0 63.06 10.63 63.06 21.91C63.05 33.19 54.76 42.22 43.48 42.22Z" fill="#979797"/>
<path d="M41.52 37.88H19.77C9.60002 37.88 1.27002 29.56 1.27002 19.38C1.27002 9.21 9.60002 0.880005 19.77 0.880005H41.52C51.69 0.880005 60.02 9.21 60.02 19.38C60.02 29.56 51.7 37.88 41.52 37.88Z" fill="white" stroke="#979797" stroke-miterlimit="10"/>
<path d="M19.8 26.7201L30.6201 12.04L41.4901 26.7201H19.8Z" fill="#979797" stroke="#979797" stroke-width="0.5" stroke-miterlimit="10"/>
</svg>
