<svg width="22" height="22" viewBox="0 0 22 22" fill="none" xmlns="http://www.w3.org/2000/svg">
<path d="M21 11C21 16.5294 16.5294 21 11 21C5.47059 21 1 16.5294 1 11C1 5.47066 5.47059 1.00009 11 1.00009C16.5059 0.976563 21 5.47066 21 11Z" fill="white" stroke="#231815" stroke-width="0.3685" stroke-miterlimit="10"/>
<path d="M3.89404 13.1647C8.03522 10.9059 10.294 9.00005 11.847 7.61182C12.5058 7.00006 14.1058 5.49419 14.1058 5.07066C14.1058 4.67066 13.6587 4.4589 13.3529 4.29419L13.3999 4.12949C13.5882 4.0589 13.7293 4.01184 13.894 4.01184C14.7882 4.01184 16.0823 4.92948 16.0823 5.44713C16.0823 5.68242 15.9176 5.80007 15.5411 6.01183C15.0705 6.29418 13.2587 7.94123 12.8823 8.27064C12.1058 8.92946 11.7764 9.18829 11.4705 9.40005C11.9646 9.6824 12.1999 9.89417 12.1999 10.2C12.1999 10.2942 12.1058 10.6942 12.1058 10.7883C12.0823 11 12.0587 11.6118 12.0587 12.7412C12.0587 13.6589 12.0587 15.3765 12.0823 16.2C12.0823 16.4118 12.1293 17.4471 12.1293 17.6353C12.1293 17.8 12.1293 18.6706 11.6352 18.6706C11.047 18.6706 10.7176 17.5177 10.7176 17.0706C10.7176 16.8588 10.8587 15.8236 10.8823 15.6353C10.9293 14.7412 10.9293 13.7059 10.9293 12.8118C10.9293 12.5059 10.9529 11 10.8587 10.5295C10.8352 10.2942 10.7646 10.1765 10.647 10.0589C9.09404 11.1177 7.21169 12.4353 3.98816 13.3294L3.89404 13.1647Z" fill="#231815"/>
</svg>
