<svg width="22" height="22" viewBox="0 0 22 22" fill="none" xmlns="http://www.w3.org/2000/svg">
<path d="M21 11C21 16.5294 16.5294 21 11 21C5.47059 21 1 16.5294 1 11C1 5.47066 5.47059 1.00009 11 1.00009C16.5059 0.976563 21 5.47066 21 11Z" fill="white" stroke="#231815" stroke-width="0.3685" stroke-miterlimit="10"/>
<path d="M11.0234 3.96479C11.2116 3.87068 11.4469 3.7295 11.8234 3.7295C12.3881 3.7295 13.6351 4.27067 13.6351 4.78832C13.6351 4.88244 13.4939 5.37655 13.4704 5.58831C13.3292 6.15302 13.2822 6.78831 13.2586 7.30595C15.0939 7.14125 15.1175 7.14125 15.3998 7.07066C15.5175 7.04713 16.1292 6.92949 16.1998 6.92949C16.5528 6.92949 17.6116 7.40007 17.6116 7.84713C17.6116 8.15301 17.2586 8.24713 16.9998 8.24713C16.6939 8.24713 15.1175 8.10595 14.741 8.08242C14.0351 8.05889 13.5645 8.08242 13.2586 8.10595C13.2351 8.48242 13.2586 9.80006 13.2586 10.2001C13.2822 10.953 13.4939 15.4942 13.4939 15.8941C13.4939 16.6941 13.0939 17.7765 12.4586 17.7765C12.1292 17.7765 12.0586 17.5412 11.9881 17.3765C11.7528 16.7177 11.7057 16.6236 11.4234 16.3412C11.1881 16.1294 9.91747 15.2589 9.63512 15.0471L9.70571 14.8824C10.1057 15.0236 11.7057 15.6118 11.9881 15.6118C12.3175 15.6353 12.3175 15.1883 12.3175 14.3647C12.3175 13.6118 12.2469 10.2706 12.2234 9.56477C10.3175 12.4118 7.75277 14.8824 4.45865 15.8236L4.38806 15.6353C9.04689 12.8589 11.0469 9.37653 11.6822 8.24713C9.32924 8.48242 8.12924 8.74124 7.79983 8.7883C7.51747 8.85889 6.24688 9.1883 5.96453 9.1883C5.42336 9.1883 4.45865 8.45889 4.45865 7.68242C4.45865 7.58831 4.48218 7.47066 4.50571 7.32948L4.67041 7.23537C4.95277 7.58831 5.30571 7.94125 6.15277 7.94125C6.50571 7.94125 6.92924 7.91772 7.3763 7.84713C9.61159 7.61183 9.87041 7.58831 12.2234 7.40007C12.2234 7.23537 12.1998 6.36478 12.1998 6.15302C12.1998 5.16479 12.1057 4.55303 10.9998 4.15303L11.0234 3.96479Z" fill="#231815"/>
</svg>
