<svg width="22" height="22" viewBox="0 0 22 22" fill="none" xmlns="http://www.w3.org/2000/svg">
<path d="M21 11C21 16.5294 16.5294 21 11 21C5.47059 21 1 16.5294 1 11C1 5.47066 5.47059 1.00009 11 1.00009C16.5059 0.976563 21 5.47066 21 11Z" fill="white" stroke="#231815" stroke-width="0.3685" stroke-miterlimit="10"/>
<path d="M9.7296 3.6589C9.96489 3.54125 10.2002 3.42361 10.6237 3.42361C11.4237 3.42361 12.3649 3.94125 12.3649 4.34125C12.3649 4.50595 12.0825 5.14125 12.059 5.25889C12.059 5.28242 11.7767 6.92947 11.7531 7.09418C12.2472 7.04712 14.5061 6.83536 14.9531 6.76477C15.1178 6.74124 15.3531 6.69418 15.5414 6.60006C16.0119 6.3883 16.059 6.36477 16.2002 6.36477C16.5767 6.36477 17.4943 7.16477 17.4943 7.49418C17.4943 7.61182 17.4002 7.70594 17.1649 7.96476C17.0002 8.153 17.0002 8.36476 16.7414 10.2C16.2708 13.6589 15.7531 14.9294 15.2119 15.8471C14.8119 16.553 14.2002 17.2118 13.659 17.2118C13.259 17.2118 13.2119 16.8824 13.1884 16.4824C13.1414 16.0824 12.8825 15.8235 12.6943 15.6353C12.4825 15.4471 11.5649 14.6706 11.3767 14.4824L11.4943 14.3412C11.9649 14.553 13.4943 15.2118 13.7531 15.2118C14.9767 15.2118 15.7061 9.47064 15.7061 7.9177C15.7061 7.753 15.659 7.63535 15.3531 7.63535C14.2002 7.63535 12.7178 7.82359 11.5649 7.96476C10.9767 10.7883 9.75312 15.353 5.02371 17.0471L4.95312 16.9059C6.60018 15.7294 9.35313 13.4 10.3178 8.153C9.14136 8.3177 8.85901 8.34123 8.03548 8.50594C7.80018 8.52947 6.81195 8.78829 6.57665 8.78829C5.96489 8.78829 5.21195 7.82359 5.21195 7.23535C5.21195 7.02359 5.28254 6.85888 5.35312 6.67065L5.54136 6.64712C5.8943 7.32947 6.2943 7.51771 6.97665 7.51771C7.4943 7.51771 8.08254 7.47065 10.459 7.23535C10.5061 6.88241 10.6708 5.63536 10.6708 4.85889C10.6708 4.24713 10.3884 4.0589 9.70607 3.84713V3.6589H9.7296Z" fill="#231815"/>
</svg>
