<svg width="22" height="22" viewBox="0 0 22 22" fill="none" xmlns="http://www.w3.org/2000/svg">
<path d="M21 11C21 16.5294 16.5294 21 11 21C5.47059 21 1 16.5294 1 11C1 5.47066 5.47059 1.00009 11 1.00009C16.5059 0.976563 21 5.47066 21 11Z" fill="white" stroke="#231815" stroke-width="0.3685" stroke-miterlimit="10"/>
<path d="M4.27067 11.4C4.50596 11.6118 4.92949 12.0118 5.54125 12.0118C5.77655 12.0118 6.27067 11.9177 10.7177 11C10.553 9.96475 10.4354 9.1177 10.2236 7.96476C9.42361 8.12947 8.67067 8.27064 8.12949 8.43535C7.87067 8.4824 6.81184 8.85887 6.60008 8.85887C6.31773 8.85887 5.11773 8.45887 5.0942 7.30594L5.2589 7.23535C5.44714 7.40006 5.82361 7.70594 6.48243 7.70594C6.95302 7.70594 9.42361 7.23535 10.0824 7.09418C9.6589 4.69419 9.61184 4.38831 8.41184 4.12948L8.43537 3.94125C8.62361 3.8236 8.88243 3.6589 9.30596 3.6589C9.82361 3.6589 11.0471 3.87066 11.0471 4.50595C11.0471 4.6236 11.0236 5.1883 11.0236 5.30595C11.0236 5.63536 11.0707 6.10594 11.1883 6.88241C11.4471 6.83535 12.953 6.52947 13.5648 6.34124C14.3177 6.12947 14.4118 6.10594 14.6001 6.10594C15.0471 6.10594 15.8471 6.50594 15.8471 6.85888C15.8471 7.14123 15.7295 7.16476 14.6001 7.25888C13.1177 7.37653 11.3765 7.72947 11.306 7.72947C11.3765 8.22358 11.7295 10.3647 11.7765 10.7883C12.2707 10.6942 14.506 10.2942 14.9765 10.1765C15.1883 10.1295 16.153 9.82357 16.3413 9.82357C16.6707 9.82357 17.8942 10.1765 17.8942 10.6942C17.8942 11.0706 17.4942 11.0706 17.2118 11.0706C15.4942 11.0706 13.8236 11.2824 11.9177 11.6353C12.0354 12.3883 12.8589 17.0235 12.8589 17.2824C12.8589 17.7059 12.5765 17.9882 12.3177 17.9882C11.8471 17.9882 11.2824 17.0706 11.2824 16.4353C11.2824 16.2235 11.306 15.3294 11.306 15.1412C11.306 14.8588 11.2589 14.2941 10.8589 11.8471C9.11773 12.2 7.56478 12.6236 6.95302 12.8118C6.76478 12.8824 5.82361 13.2589 5.61184 13.2589C5.2589 13.2589 4.0589 12.7177 4.10596 11.5177L4.27067 11.4Z" fill="#231815"/>
</svg>
