<svg width="106" height="43" viewBox="0 0 106 43" fill="none" xmlns="http://www.w3.org/2000/svg">
<g clip-path="url(#clip0)">
<path d="M86.43 42.22H20.96C11.95 42.22 0 33.46 0 20.51C0 9.23 8.28 0 19.57 0H85.04C96.32 0 106 10.63 106 21.91C106 33.19 97.71 42.22 86.43 42.22Z" fill="#0D85B7"/>
<path d="M84.4699 37.89H19.4399C9.26994 37.89 0.939941 29.57 0.939941 19.39C0.939941 9.22 9.25994 0.889999 19.4399 0.889999H84.4699C94.6399 0.889999 102.97 9.21 102.97 19.39C102.97 29.56 94.6399 37.89 84.4699 37.89Z" fill="white" stroke="#0D85B7" stroke-miterlimit="10"/>
<path d="M38.4 20.13C37.89 21.52 37.39 22.58 36.82 23.48C36.55 23.9 36.45 23.96 36.2 23.96C35.88 23.96 35.62 23.7 35.62 23.4C35.62 23.19 35.62 23.19 35.99 22.68C36.79 21.5 37.64 19.67 38.22 17.86H36.17C35.9 17.86 35.71 17.62 35.71 17.3C35.71 16.98 35.9 16.74 36.17 16.74H38.41V14.24C37.74 14.37 36.63 14.53 36.46 14.53C36.16 14.53 35.95 14.31 35.95 13.95C35.95 13.6 36.13 13.45 36.57 13.41C37.83 13.25 39.87 12.79 40.68 12.48C40.79 12.43 40.89 12.42 40.98 12.42C41.27 12.42 41.49 12.68 41.49 13.01C41.49 13.39 41.28 13.51 39.55 13.99V16.74H41.39C41.66 16.74 41.84 16.96 41.84 17.3C41.84 17.64 41.65 17.86 41.39 17.86H39.55V19.11C40.19 19.62 40.65 20.05 41.57 20.98C41.73 21.14 41.81 21.28 41.81 21.46C41.81 21.76 41.55 22 41.27 22C41.01 22 40.93 21.95 40.66 21.58C40.31 21.1 39.99 20.73 39.56 20.27V26.85C39.56 27.12 39.32 27.3 38.97 27.3C38.63 27.3 38.41 27.12 38.41 26.85V20.13H38.4ZM48.79 13.17C49.37 13.17 49.69 13.41 49.69 13.83C49.69 14.61 48.52 16.23 47 17.58C45.88 18.56 44.5 19.42 43.09 20.01C42.53 20.23 42.26 20.33 42.07 20.33C41.77 20.33 41.49 20.06 41.49 19.75C41.49 19.46 41.63 19.33 42.23 19.11C43.43 18.68 44.69 17.99 45.58 17.32C45.07 16.81 44.41 16.25 43.79 15.77C42.93 16.46 42.4 16.78 42.12 16.78C41.85 16.78 41.58 16.51 41.58 16.24C41.58 15.98 41.69 15.86 42.06 15.65C43.2 14.98 44.56 13.67 45.34 12.5C45.5 12.24 45.66 12.13 45.88 12.13C46.17 12.13 46.46 12.39 46.46 12.67C46.46 12.81 46.41 12.93 46.24 13.18H48.79V13.17ZM49.59 19.57C50.21 19.57 50.55 19.81 50.55 20.29C50.55 21.28 49.08 23.41 47.45 24.74C46.17 25.78 44.7 26.56 43.18 27.03C42.73 27.17 42.41 27.24 42.25 27.24C41.91 27.24 41.64 26.97 41.64 26.63C41.64 26.45 41.74 26.29 41.91 26.18C42 26.13 42 26.13 42.47 26C43.93 25.58 45.48 24.83 46.5 24.03C45.84 23.34 45.27 22.83 44.53 22.25C43.62 22.99 42.93 23.42 42.64 23.42C42.35 23.42 42.08 23.13 42.08 22.84C42.08 22.57 42.18 22.46 42.59 22.23C43.65 21.7 45.57 19.89 46.4 18.64C46.62 18.32 46.75 18.22 46.98 18.22C47.25 18.22 47.54 18.48 47.54 18.72C47.54 18.91 47.43 19.12 47.11 19.55H49.59V19.57ZM45.4 14.21C45.14 14.48 44.86 14.79 44.54 15.09C45.31 15.63 45.74 15.97 46.43 16.61C47.29 15.81 48.24 14.64 48.24 14.39C48.24 14.28 48.13 14.21 47.95 14.21H45.4V14.21ZM45.29 21.59C46.06 22.17 46.51 22.53 47.34 23.3C48.25 22.42 49.18 21.14 49.18 20.77C49.18 20.64 49.05 20.56 48.88 20.56H46.3C46 20.91 45.79 21.12 45.44 21.46L45.29 21.59Z" fill="#0D85B7" stroke="#0D85B7" stroke-width="0.5" stroke-miterlimit="10"/>
<path d="M60.52 17.28C61.22 17.28 61.59 17.65 61.59 18.35V21.04C61.59 21.76 61.22 22.13 60.52 22.13H58.33V23.19H61.23C61.49 23.19 61.65 23.4 61.65 23.69C61.65 24.01 61.49 24.2 61.23 24.2H58.33V25.46L59.31 25.35C59.95 25.27 60.13 25.24 60.61 25.17C61.12 25.07 61.17 25.07 61.25 25.07C61.55 25.07 61.78 25.29 61.78 25.61C61.78 25.63 61.78 25.66 61.76 25.69C63.28 23.46 63.97 20.94 64.16 17H62.35C62.06 17 61.87 16.76 61.87 16.42C61.87 16.08 62.08 15.83 62.35 15.83H64.21L64.29 12.66C64.29 12.39 64.53 12.2 64.87 12.2C65.22 12.2 65.46 12.39 65.46 12.66L65.38 15.83H67.03C67.51 15.83 67.81 15.93 68.01 16.15C68.22 16.41 68.23 16.52 68.23 18.02C68.23 22.23 68.05 25.27 67.75 26.23C67.53 26.9 67.16 27.11 66.15 27.11C64.65 27.11 64.2 26.95 64.2 26.45C64.2 26.07 64.41 25.84 64.76 25.84C64.81 25.84 64.84 25.84 64.97 25.86C65.32 25.89 65.72 25.92 65.98 25.92C66.43 25.92 66.6 25.78 66.7 25.31C66.94 24.24 67.12 21 67.12 17.82C67.12 17.07 67.07 16.99 66.64 16.99H65.3C65.17 20.22 64.76 22.45 63.94 24.35C63.52 25.33 63.01 26.19 62.4 26.94C62.22 27.15 62.02 27.26 61.81 27.26C61.51 27.26 61.2 26.99 61.2 26.68C61.2 26.47 61.22 26.46 61.54 26.01C61.4 26.09 61.25 26.12 60.37 26.27C58.69 26.53 54.74 26.94 53.87 26.94C53.53 26.94 53.33 26.72 53.33 26.36C53.33 26.1 53.46 25.93 53.68 25.85C53.79 25.82 53.79 25.82 54.35 25.8C55.02 25.77 55.87 25.7 57.2 25.58V24.2H54.24C54 24.2 53.84 23.99 53.84 23.69C53.84 23.4 54 23.19 54.24 23.19H57.2V22.13H55.09C54.37 22.13 54 21.76 54 21.04V18.35C54 17.63 54.35 17.28 55.09 17.28H57.2V16.22H53.84C53.58 16.22 53.42 16.03 53.42 15.72C53.42 15.42 53.58 15.21 53.84 15.21H57.2V14.04C56.19 14.12 54.93 14.18 54.43 14.18C53.98 14.18 53.81 14.04 53.81 13.67C53.81 13.35 54.02 13.16 54.37 13.16H54.61C56.59 13.13 58.88 12.9 60.52 12.6C60.74 12.57 60.82 12.55 60.89 12.55C61.21 12.55 61.42 12.76 61.42 13.06C61.42 13.32 61.26 13.49 60.96 13.57C60.43 13.68 59.28 13.84 58.37 13.94V15.2H61.6C61.84 15.2 62.02 15.41 62.02 15.71C62.02 16 61.84 16.21 61.6 16.21H58.37V17.27H60.52V17.28ZM55.41 18.16C55.17 18.16 55.07 18.27 55.07 18.53V19.25H57.17V18.16H55.41ZM55.07 20.1V20.87C55.07 21.11 55.18 21.22 55.41 21.22H57.17V20.1H55.07ZM60.52 18.53C60.52 18.29 60.39 18.16 60.17 18.16H58.33V19.25H60.52V18.53V18.53ZM58.32 21.22H60.14C60.38 21.22 60.51 21.09 60.51 20.87V20.1H58.32V21.22Z" fill="#0D85B7" stroke="#0D85B7" stroke-width="0.5" stroke-miterlimit="10"/>
</g>
<defs>
<clipPath id="clip0">
<rect width="106" height="42.22" fill="white"/>
</clipPath>
</defs>
</svg>
