<svg width="106" height="43" viewBox="0 0 106 43" fill="none" xmlns="http://www.w3.org/2000/svg">
<g clip-path="url(#clip0)">
<path d="M86.43 42.22H20.96C11.95 42.22 0 33.46 0 20.51C0 9.23 8.28 0 19.57 0H85.04C96.32 0 106 10.63 106 21.91C106 33.19 97.71 42.22 86.43 42.22Z" fill="#0D85B7"/>
<path d="M84.4699 37.89H19.4399C9.26994 37.89 0.939941 29.57 0.939941 19.39C0.939941 9.22 9.25994 0.889999 19.4399 0.889999H84.4699C94.6399 0.889999 102.97 9.21 102.97 19.39C102.97 29.56 94.6399 37.89 84.4699 37.89Z" fill="#0D85B7" stroke="#0D85B7" stroke-miterlimit="10"/>
<path d="M38.78 21C38.27 22.39 37.77 23.45 37.2 24.35C36.93 24.77 36.83 24.83 36.58 24.83C36.26 24.83 36 24.57 36 24.27C36 24.06 36 24.06 36.37 23.55C37.17 22.37 38.02 20.54 38.6 18.73H36.55C36.28 18.73 36.09 18.49 36.09 18.17C36.09 17.85 36.28 17.61 36.55 17.61H38.79V15.11C38.12 15.24 37.01 15.4 36.84 15.4C36.54 15.4 36.33 15.18 36.33 14.82C36.33 14.47 36.51 14.32 36.95 14.28C38.21 14.12 40.25 13.66 41.06 13.35C41.17 13.3 41.27 13.29 41.36 13.29C41.65 13.29 41.87 13.55 41.87 13.88C41.87 14.26 41.66 14.38 39.93 14.86V17.61H41.77C42.04 17.61 42.22 17.83 42.22 18.17C42.22 18.51 42.03 18.73 41.77 18.73H39.93V19.98C40.57 20.49 41.03 20.92 41.95 21.85C42.11 22.01 42.19 22.15 42.19 22.33C42.19 22.63 41.93 22.87 41.65 22.87C41.39 22.87 41.31 22.82 41.04 22.45C40.69 21.97 40.37 21.6 39.94 21.14V27.72C39.94 27.99 39.7 28.17 39.35 28.17C39.01 28.17 38.79 27.99 38.79 27.72V21H38.78ZM49.17 14.04C49.75 14.04 50.07 14.28 50.07 14.7C50.07 15.48 48.9 17.1 47.38 18.45C46.26 19.43 44.88 20.29 43.47 20.88C42.91 21.1 42.64 21.2 42.45 21.2C42.15 21.2 41.87 20.93 41.87 20.62C41.87 20.33 42.01 20.2 42.61 19.98C43.81 19.55 45.07 18.86 45.96 18.19C45.45 17.68 44.79 17.12 44.17 16.64C43.31 17.33 42.78 17.65 42.5 17.65C42.23 17.65 41.96 17.38 41.96 17.11C41.96 16.85 42.07 16.73 42.44 16.52C43.58 15.85 44.94 14.54 45.72 13.37C45.88 13.11 46.04 13 46.26 13C46.55 13 46.84 13.26 46.84 13.54C46.84 13.68 46.79 13.8 46.62 14.05H49.17V14.04ZM49.97 20.44C50.59 20.44 50.93 20.68 50.93 21.16C50.93 22.15 49.46 24.28 47.83 25.61C46.55 26.65 45.08 27.43 43.56 27.9C43.11 28.04 42.79 28.11 42.63 28.11C42.29 28.11 42.02 27.84 42.02 27.5C42.02 27.32 42.12 27.16 42.29 27.05C42.38 27 42.38 27 42.85 26.87C44.31 26.45 45.86 25.7 46.88 24.9C46.22 24.21 45.65 23.7 44.91 23.12C44 23.86 43.31 24.29 43.02 24.29C42.73 24.29 42.46 24 42.46 23.71C42.46 23.44 42.56 23.33 42.97 23.1C44.03 22.57 45.95 20.76 46.78 19.51C47 19.19 47.13 19.09 47.36 19.09C47.63 19.09 47.92 19.35 47.92 19.59C47.92 19.78 47.81 19.99 47.49 20.42H49.97V20.44ZM45.78 15.08C45.52 15.35 45.24 15.66 44.92 15.96C45.69 16.5 46.12 16.84 46.81 17.48C47.67 16.68 48.62 15.51 48.62 15.26C48.62 15.15 48.51 15.08 48.33 15.08H45.78V15.08ZM45.67 22.46C46.44 23.04 46.89 23.4 47.72 24.17C48.63 23.29 49.56 22.01 49.56 21.64C49.56 21.51 49.43 21.43 49.26 21.43H46.68C46.38 21.78 46.17 21.99 45.82 22.33L45.67 22.46Z" fill="white" stroke="white" stroke-width="0.5" stroke-miterlimit="10"/>
<path d="M60.9 18.15C61.6 18.15 61.97 18.52 61.97 19.22V21.91C61.97 22.63 61.6 23 60.9 23H58.71V24.06H61.61C61.87 24.06 62.03 24.27 62.03 24.56C62.03 24.88 61.87 25.07 61.61 25.07H58.71V26.33L59.69 26.22C60.33 26.14 60.51 26.11 60.99 26.04C61.5 25.94 61.55 25.94 61.63 25.94C61.93 25.94 62.16 26.16 62.16 26.48C62.16 26.5 62.16 26.53 62.14 26.56C63.66 24.33 64.35 21.81 64.54 17.87H62.73C62.44 17.87 62.25 17.63 62.25 17.29C62.25 16.95 62.46 16.7 62.73 16.7H64.59L64.67 13.53C64.67 13.26 64.91 13.07 65.25 13.07C65.6 13.07 65.84 13.26 65.84 13.53L65.76 16.7H67.41C67.89 16.7 68.19 16.8 68.39 17.02C68.6 17.28 68.61 17.39 68.61 18.89C68.61 23.1 68.43 26.14 68.13 27.1C67.91 27.77 67.54 27.98 66.53 27.98C65.03 27.98 64.58 27.82 64.58 27.32C64.58 26.94 64.79 26.71 65.14 26.71C65.19 26.71 65.22 26.71 65.35 26.73C65.7 26.76 66.1 26.79 66.36 26.79C66.81 26.79 66.98 26.65 67.08 26.18C67.32 25.11 67.5 21.87 67.5 18.69C67.5 17.94 67.45 17.86 67.02 17.86H65.68C65.55 21.09 65.14 23.32 64.32 25.22C63.9 26.2 63.39 27.06 62.78 27.81C62.6 28.02 62.4 28.13 62.19 28.13C61.89 28.13 61.58 27.86 61.58 27.55C61.58 27.34 61.6 27.33 61.92 26.88C61.78 26.96 61.63 26.99 60.75 27.14C59.07 27.4 55.12 27.81 54.25 27.81C53.91 27.81 53.71 27.59 53.71 27.23C53.71 26.97 53.84 26.8 54.06 26.72C54.17 26.69 54.17 26.69 54.73 26.67C55.4 26.64 56.25 26.57 57.58 26.45V25.07H54.62C54.38 25.07 54.22 24.86 54.22 24.56C54.22 24.27 54.38 24.06 54.62 24.06H57.58V23H55.47C54.75 23 54.38 22.63 54.38 21.91V19.22C54.38 18.5 54.73 18.15 55.47 18.15H57.58V17.09H54.22C53.96 17.09 53.8 16.9 53.8 16.59C53.8 16.29 53.96 16.08 54.22 16.08H57.58V14.91C56.57 14.99 55.31 15.05 54.81 15.05C54.36 15.05 54.19 14.91 54.19 14.54C54.19 14.22 54.4 14.03 54.75 14.03H54.99C56.97 14 59.26 13.77 60.9 13.47C61.12 13.44 61.2 13.42 61.27 13.42C61.59 13.42 61.8 13.63 61.8 13.93C61.8 14.19 61.64 14.36 61.34 14.44C60.81 14.55 59.66 14.71 58.75 14.81V16.07H61.98C62.22 16.07 62.4 16.28 62.4 16.58C62.4 16.87 62.22 17.08 61.98 17.08H58.75V18.14H60.9V18.15ZM55.79 19.03C55.55 19.03 55.45 19.14 55.45 19.4V20.12H57.55V19.03H55.79ZM55.45 20.97V21.74C55.45 21.98 55.56 22.09 55.79 22.09H57.55V20.97H55.45ZM60.9 19.4C60.9 19.16 60.77 19.03 60.55 19.03H58.71V20.12H60.9V19.4V19.4ZM58.7 22.09H60.52C60.76 22.09 60.89 21.96 60.89 21.74V20.97H58.7V22.09Z" fill="white" stroke="white" stroke-width="0.5" stroke-miterlimit="10"/>
</g>
<defs>
<clipPath id="clip0">
<rect width="106" height="42.22" fill="white"/>
</clipPath>
</defs>
</svg>
