<svg width="104" height="39" viewBox="0 0 104 39" fill="none" xmlns="http://www.w3.org/2000/svg">
<path d="M84.528 38H19.5C9.325 38 1 29.675 1 19.5C1 9.325 9.325 1 19.5 1H84.528C94.703 1 103.028 9.325 103.028 19.5C103.028 29.675 94.703 38 84.528 38Z" fill="white"/>
<path d="M84.528 38H19.5C9.325 38 1 29.675 1 19.5C1 9.325 9.325 1 19.5 1H84.528C94.703 1 103.028 9.325 103.028 19.5C103.028 29.675 94.703 38 84.528 38Z" stroke="#979797" stroke-miterlimit="3" stroke-linecap="square"/>
<path d="M43.787 14.273C43.499 14.273 43.3069 14.033 43.3069 13.665C43.3069 13.329 43.499 13.088 43.787 13.088H50.317C50.846 13.088 51.229 13.249 51.422 13.568C51.614 13.873 51.6299 13.953 51.6299 15.522C51.6299 20.131 51.422 24.357 51.134 25.429C50.91 26.278 50.51 26.518 49.389 26.518C47.389 26.518 46.7159 26.326 46.7159 25.766C46.7159 25.381 46.956 25.125 47.308 25.125C47.389 25.125 47.452 25.125 47.628 25.157C48.125 25.253 48.621 25.301 49.069 25.301C49.677 25.301 49.901 25.109 50.014 24.517C50.269 23.012 50.413 19.811 50.413 15.281C50.413 14.385 50.349 14.273 49.886 14.273H47.548V14.433V14.497C47.548 17.906 47.404 19.427 46.956 20.963C46.38 22.948 45.18 24.917 43.739 26.246C43.419 26.534 43.274 26.614 43.034 26.614C42.683 26.614 42.362 26.326 42.362 26.005C42.362 25.733 42.41 25.669 42.938 25.205C44.875 23.397 45.979 21.027 46.204 18.178C46.315 17.17 46.364 15.938 46.364 14.273H43.787ZM40.329 21.924C40.329 22.452 40.457 22.532 41.386 22.532C42.458 22.532 42.826 22.452 42.954 22.18C43.051 21.956 43.131 21.204 43.146 20.227C43.146 19.827 43.354 19.603 43.723 19.603C44.139 19.603 44.347 19.843 44.347 20.307C44.347 21.091 44.251 22.26 44.139 22.66C43.915 23.524 43.354 23.749 41.338 23.749C39.433 23.749 39.113 23.524 39.113 22.212V17.234L37.752 17.474C37.688 17.49 37.641 17.49 37.576 17.49C37.24 17.49 37 17.218 37 16.834C37 16.578 37.192 16.386 37.513 16.322L39.113 16.034V12.496C39.113 12.192 39.352 12 39.705 12C40.073 12 40.329 12.192 40.329 12.496V15.81L43.659 15.217C43.723 15.201 43.77 15.201 43.835 15.201C44.186 15.201 44.427 15.457 44.427 15.825C44.427 16.129 44.2349 16.322 43.8979 16.386L40.329 17.01V21.924Z" fill="#979797"/>
<path fill-rule="evenodd" clip-rule="evenodd" d="M43.787 14.273C43.499 14.273 43.3069 14.033 43.3069 13.665C43.3069 13.329 43.499 13.088 43.787 13.088H50.317C50.846 13.088 51.229 13.249 51.422 13.568C51.614 13.873 51.6299 13.953 51.6299 15.522C51.6299 20.131 51.422 24.357 51.134 25.429C50.91 26.278 50.51 26.518 49.389 26.518C47.389 26.518 46.7159 26.326 46.7159 25.766C46.7159 25.381 46.956 25.125 47.308 25.125C47.389 25.125 47.452 25.125 47.628 25.157C48.125 25.253 48.621 25.301 49.069 25.301C49.677 25.301 49.901 25.109 50.014 24.517C50.269 23.012 50.413 19.811 50.413 15.281C50.413 14.385 50.349 14.273 49.886 14.273H47.548V14.433V14.497C47.548 17.906 47.404 19.427 46.956 20.963C46.38 22.948 45.18 24.917 43.739 26.246C43.419 26.534 43.274 26.614 43.034 26.614C42.683 26.614 42.362 26.326 42.362 26.005C42.362 25.733 42.41 25.669 42.938 25.205C44.875 23.397 45.979 21.027 46.204 18.178C46.315 17.17 46.364 15.938 46.364 14.273H43.787ZM40.329 21.924C40.329 22.452 40.457 22.532 41.386 22.532C42.458 22.532 42.826 22.452 42.954 22.18C43.051 21.956 43.131 21.204 43.146 20.227C43.146 19.827 43.354 19.603 43.723 19.603C44.139 19.603 44.347 19.843 44.347 20.307C44.347 21.091 44.251 22.26 44.139 22.66C43.915 23.524 43.354 23.749 41.338 23.749C39.433 23.749 39.113 23.524 39.113 22.212V17.234L37.752 17.474C37.688 17.49 37.641 17.49 37.576 17.49C37.24 17.49 37 17.218 37 16.834C37 16.578 37.192 16.386 37.513 16.322L39.113 16.034V12.496C39.113 12.192 39.352 12 39.705 12C40.073 12 40.329 12.192 40.329 12.496V15.81L43.659 15.217C43.723 15.201 43.77 15.201 43.835 15.201C44.186 15.201 44.427 15.457 44.427 15.825C44.427 16.129 44.2349 16.322 43.8979 16.386L40.329 17.01V21.924Z" stroke="#979797" stroke-width="0.65" stroke-miterlimit="3" stroke-linecap="square"/>
<path d="M62.235 22.868C61.867 22.548 61.306 22.34 60.81 22.34C59.962 22.34 59.322 22.868 59.322 23.556C59.322 24.357 60.314 24.853 61.915 24.853C62.363 24.853 62.459 24.853 63.067 24.773C62.891 23.796 62.667 23.252 62.235 22.868ZM57.8329 13.856C57.5289 13.856 57.321 13.617 57.321 13.296C57.321 12.976 57.5289 12.752 57.8329 12.752H65.276C65.9 12.752 66.3 12.992 66.3 13.36C66.3 13.52 66.205 13.712 66.06 13.872C65.932 14.016 65.932 14.016 65.388 14.353C64.156 15.169 62.427 16.386 59.834 18.306C61.003 17.89 62.235 17.682 63.483 17.682C64.604 17.682 65.5959 17.89 66.4449 18.29C67.7569 18.898 68.414 19.971 68.414 21.444C68.414 24.164 65.949 25.861 62.027 25.861C60.57 25.861 59.642 25.637 58.969 25.141C58.425 24.741 58.105 24.1 58.105 23.429C58.105 22.244 59.29 21.315 60.81 21.315C62.667 21.315 63.9 22.468 64.219 24.533C66.157 23.956 67.085 22.948 67.085 21.475C67.085 19.651 65.756 18.69 63.243 18.69C61.867 18.69 60.122 19.011 59.049 19.443C58.569 19.651 58.057 20.003 57.353 20.627C57.113 20.835 56.968 20.899 56.793 20.899C56.457 20.899 56.152 20.579 56.152 20.227C56.152 20.035 56.249 19.843 56.457 19.683C58.105 18.354 62.763 14.897 64.316 13.856H57.8329Z" fill="#979797"/>
<path fill-rule="evenodd" clip-rule="evenodd" d="M62.235 22.868C61.867 22.548 61.306 22.34 60.81 22.34C59.962 22.34 59.322 22.868 59.322 23.556C59.322 24.357 60.314 24.853 61.915 24.853C62.363 24.853 62.459 24.853 63.067 24.773C62.891 23.796 62.667 23.252 62.235 22.868ZM57.8329 13.856C57.5289 13.856 57.321 13.617 57.321 13.296C57.321 12.976 57.5289 12.752 57.8329 12.752H65.276C65.9 12.752 66.3 12.992 66.3 13.36C66.3 13.52 66.205 13.712 66.06 13.872C65.932 14.016 65.932 14.016 65.388 14.353C64.156 15.169 62.427 16.386 59.834 18.306C61.003 17.89 62.235 17.682 63.483 17.682C64.604 17.682 65.5959 17.89 66.4449 18.29C67.7569 18.898 68.414 19.971 68.414 21.444C68.414 24.164 65.949 25.861 62.027 25.861C60.57 25.861 59.642 25.637 58.969 25.141C58.425 24.741 58.105 24.1 58.105 23.429C58.105 22.244 59.29 21.315 60.81 21.315C62.667 21.315 63.9 22.468 64.219 24.533C66.157 23.956 67.085 22.948 67.085 21.475C67.085 19.651 65.756 18.69 63.243 18.69C61.867 18.69 60.122 19.011 59.049 19.443C58.569 19.651 58.057 20.003 57.353 20.627C57.113 20.835 56.968 20.899 56.793 20.899C56.457 20.899 56.152 20.579 56.152 20.227C56.152 20.035 56.249 19.843 56.457 19.683C58.105 18.354 62.763 14.897 64.316 13.856H57.8329Z" stroke="#979797" stroke-width="0.65" stroke-miterlimit="3" stroke-linecap="square"/>
</svg>
