<svg width="103" height="38" viewBox="0 0 103 38" fill="none" xmlns="http://www.w3.org/2000/svg">
<path d="M83.529 37.519H18.501C8.32598 37.519 0.000976562 29.195 0.000976562 19.02V19.019C0.000976562 8.84398 8.32598 0.518982 18.501 0.518982H83.529C93.704 0.518982 102.029 8.84398 102.029 19.019V19.02C102.029 29.195 93.704 37.519 83.529 37.519Z" fill="#0D85B7"/>
<path d="M24.328 20.26H27.466V18.436H24.328V20.26ZM24.328 17.427H27.466V15.794H24.328V17.427ZM20.375 17.427H23.111V15.794H20.375V17.427ZM30.203 14.817C30.411 14.817 30.539 14.689 30.539 14.481V13.474C30.539 13.249 30.427 13.121 30.203 13.121H20.76C20.486 13.121 20.375 13.249 20.375 13.537V14.817H30.203ZM20.375 18.435C20.375 18.899 20.343 19.779 20.311 20.26H23.111V18.435H20.375ZM20.23 21.252C20.055 23.061 19.703 24.422 19.063 25.83C18.902 26.198 18.711 26.358 18.422 26.358C18.07 26.358 17.734 26.055 17.734 25.734C17.734 25.574 17.734 25.574 18.038 24.934C18.807 23.157 19.127 21.028 19.127 17.827V13.377C19.127 12.545 19.543 12.129 20.359 12.129H30.715C31.436 12.129 31.787 12.48 31.787 13.185V14.754C31.787 15.442 31.436 15.794 30.715 15.794H28.682V17.427H31.516C31.756 17.427 31.932 17.667 31.932 17.955C31.932 18.243 31.756 18.435 31.516 18.435H28.682V20.26H32.092C32.332 20.26 32.508 20.468 32.508 20.756C32.508 21.044 32.332 21.252 32.092 21.252H26.682C27.113 22.005 27.722 22.741 28.33 23.237C28.875 22.869 29.803 22.133 30.283 21.684C30.555 21.444 30.684 21.381 30.875 21.381C31.195 21.381 31.5 21.684 31.5 21.988C31.5 22.196 31.42 22.341 31.115 22.564C30.443 23.093 29.787 23.541 29.227 23.877C30.043 24.374 31.067 24.773 32.283 25.061C32.716 25.158 32.893 25.334 32.893 25.67C32.893 26.055 32.652 26.326 32.3 26.326C32.092 26.326 31.563 26.183 30.875 25.958C28.362 25.11 26.569 23.541 25.465 21.252H23.784V24.742L23.848 24.726L24.024 24.693C24.681 24.55 25.561 24.342 26.01 24.214C26.473 24.069 26.506 24.069 26.633 24.069C26.922 24.069 27.162 24.357 27.162 24.693C27.162 24.981 27.018 25.11 26.506 25.269C25.017 25.718 21.783 26.391 21.127 26.391C20.76 26.391 20.52 26.15 20.52 25.782C20.52 25.542 20.646 25.35 20.855 25.269C20.951 25.222 21.063 25.206 21.447 25.158C21.912 25.094 22.184 25.046 22.568 24.966V21.252H20.23Z" fill="white"/>
<path fill-rule="evenodd" clip-rule="evenodd" d="M24.328 20.26H27.466V18.436H24.328V20.26ZM24.328 17.427H27.466V15.794H24.328V17.427ZM20.375 17.427H23.111V15.794H20.375V17.427ZM30.203 14.817C30.411 14.817 30.539 14.689 30.539 14.481V13.474C30.539 13.249 30.427 13.121 30.203 13.121H20.76C20.486 13.121 20.375 13.249 20.375 13.537V14.817H30.203ZM20.375 18.435C20.375 18.899 20.343 19.779 20.311 20.26H23.111V18.435H20.375ZM20.23 21.252C20.055 23.061 19.703 24.422 19.063 25.83C18.902 26.198 18.711 26.358 18.422 26.358C18.07 26.358 17.734 26.055 17.734 25.734C17.734 25.574 17.734 25.574 18.038 24.934C18.807 23.157 19.127 21.028 19.127 17.827V13.377C19.127 12.545 19.543 12.129 20.359 12.129H30.715C31.436 12.129 31.787 12.48 31.787 13.185V14.754C31.787 15.442 31.436 15.794 30.715 15.794H28.682V17.427H31.516C31.756 17.427 31.932 17.667 31.932 17.955C31.932 18.243 31.756 18.435 31.516 18.435H28.682V20.26H32.092C32.332 20.26 32.508 20.468 32.508 20.756C32.508 21.044 32.332 21.252 32.092 21.252H26.682C27.113 22.005 27.722 22.741 28.33 23.237C28.875 22.869 29.803 22.133 30.283 21.684C30.555 21.444 30.684 21.381 30.875 21.381C31.195 21.381 31.5 21.684 31.5 21.988C31.5 22.196 31.42 22.341 31.115 22.564C30.443 23.093 29.787 23.541 29.227 23.877C30.043 24.374 31.067 24.773 32.283 25.061C32.716 25.158 32.893 25.334 32.893 25.67C32.893 26.055 32.652 26.326 32.3 26.326C32.092 26.326 31.563 26.183 30.875 25.958C28.362 25.11 26.569 23.541 25.465 21.252H23.784V24.742L23.848 24.726L24.024 24.693C24.681 24.55 25.561 24.342 26.01 24.214C26.473 24.069 26.506 24.069 26.633 24.069C26.922 24.069 27.162 24.357 27.162 24.693C27.162 24.981 27.018 25.11 26.506 25.269C25.017 25.718 21.783 26.391 21.127 26.391C20.76 26.391 20.52 26.15 20.52 25.782C20.52 25.542 20.646 25.35 20.855 25.269C20.951 25.222 21.063 25.206 21.447 25.158C21.912 25.094 22.184 25.046 22.568 24.966V21.252H20.23Z" stroke="white" stroke-width="0.65" stroke-miterlimit="3" stroke-linecap="square"/>
<path d="M44.666 14.962V15.874C44.666 16.13 44.794 16.259 45.033 16.259H48.619V14.962H44.666ZM48.619 14.13V13.265C48.619 13.009 48.491 12.865 48.235 12.865H45.033C44.794 12.865 44.666 13.009 44.666 13.265V14.13H48.619ZM44.682 17.154C43.914 17.154 43.529 16.771 43.529 16.002V13.106C43.529 12.337 43.897 11.969 44.682 11.969H48.619C49.436 11.969 49.836 12.369 49.836 13.169V24.95C49.836 25.51 49.724 25.847 49.468 26.038C49.211 26.246 48.939 26.294 48.027 26.294C46.41 26.294 46.122 26.183 46.122 25.59C46.122 25.238 46.362 25.03 46.73 25.03C46.778 25.03 46.778 25.03 46.955 25.046C47.227 25.078 47.482 25.094 47.755 25.094C48.508 25.094 48.619 25.03 48.619 24.55V17.154H44.682ZM41.672 21.301H44.153V19.203H41.672V21.301ZM45.273 21.301H47.259C47.499 21.301 47.691 21.524 47.691 21.828C47.691 22.117 47.515 22.341 47.259 22.341H45.273V25.59C45.273 25.862 45.05 26.038 44.714 26.038C44.361 26.038 44.153 25.862 44.153 25.59V22.341H41.641C41.545 23.478 41.225 24.245 40.536 25.03C39.96 25.67 39.287 26.135 38.92 26.135C38.615 26.135 38.344 25.847 38.344 25.526C38.344 25.286 38.424 25.174 38.775 24.934C39.832 24.262 40.376 23.445 40.504 22.341H38.471C38.215 22.341 38.039 22.133 38.039 21.828C38.039 21.524 38.215 21.301 38.471 21.301H40.536V19.203H38.855C38.6 19.203 38.439 19.012 38.439 18.724C38.439 18.403 38.6 18.195 38.855 18.195H46.858C47.099 18.195 47.275 18.419 47.275 18.724C47.275 18.995 47.099 19.203 46.858 19.203H45.273V21.301ZM37.158 16.259H40.616C40.872 16.259 41 16.13 41 15.874V14.962H37.158V16.259ZM41 13.265C41 12.993 40.872 12.865 40.632 12.865H37.527C37.287 12.865 37.158 13.009 37.158 13.265V14.13H41V13.265ZM37.158 25.91C37.158 26.231 36.887 26.471 36.534 26.471C36.198 26.471 35.942 26.231 35.942 25.91V13.169C35.942 12.353 36.326 11.969 37.143 11.969H40.984C41.769 11.969 42.152 12.337 42.152 13.106V16.002C42.152 16.771 41.769 17.154 41 17.154H37.158V25.91Z" fill="white"/>
<path fill-rule="evenodd" clip-rule="evenodd" d="M44.666 14.962V15.874C44.666 16.13 44.794 16.259 45.033 16.259H48.619V14.962H44.666ZM48.619 14.13V13.265C48.619 13.009 48.491 12.865 48.235 12.865H45.033C44.794 12.865 44.666 13.009 44.666 13.265V14.13H48.619ZM44.682 17.154C43.914 17.154 43.529 16.771 43.529 16.002V13.106C43.529 12.337 43.897 11.969 44.682 11.969H48.619C49.436 11.969 49.836 12.369 49.836 13.169V24.95C49.836 25.51 49.724 25.847 49.468 26.038C49.211 26.246 48.939 26.294 48.027 26.294C46.41 26.294 46.122 26.183 46.122 25.59C46.122 25.238 46.362 25.03 46.73 25.03C46.778 25.03 46.778 25.03 46.955 25.046C47.227 25.078 47.482 25.094 47.755 25.094C48.508 25.094 48.619 25.03 48.619 24.55V17.154H44.682ZM41.672 21.301H44.153V19.203H41.672V21.301ZM45.273 21.301H47.259C47.499 21.301 47.691 21.524 47.691 21.828C47.691 22.117 47.515 22.341 47.259 22.341H45.273V25.59C45.273 25.862 45.05 26.038 44.714 26.038C44.361 26.038 44.153 25.862 44.153 25.59V22.341H41.641C41.545 23.478 41.225 24.245 40.536 25.03C39.96 25.67 39.287 26.135 38.92 26.135C38.615 26.135 38.344 25.847 38.344 25.526C38.344 25.286 38.424 25.174 38.775 24.934C39.832 24.262 40.376 23.445 40.504 22.341H38.471C38.215 22.341 38.039 22.133 38.039 21.828C38.039 21.524 38.215 21.301 38.471 21.301H40.536V19.203H38.855C38.6 19.203 38.439 19.012 38.439 18.724C38.439 18.403 38.6 18.195 38.855 18.195H46.858C47.099 18.195 47.275 18.419 47.275 18.724C47.275 18.995 47.099 19.203 46.858 19.203H45.273V21.301ZM37.158 16.259H40.616C40.872 16.259 41 16.13 41 15.874V14.962H37.158V16.259ZM41 13.265C41 12.993 40.872 12.865 40.632 12.865H37.527C37.287 12.865 37.158 13.009 37.158 13.265V14.13H41V13.265ZM37.158 25.91C37.158 26.231 36.887 26.471 36.534 26.471C36.198 26.471 35.942 26.231 35.942 25.91V13.169C35.942 12.353 36.326 11.969 37.143 11.969H40.984C41.769 11.969 42.152 12.337 42.152 13.106V16.002C42.152 16.771 41.769 17.154 41 17.154H37.158V25.91Z" stroke="white" stroke-width="0.65" stroke-miterlimit="3" stroke-linecap="square"/>
<path d="M61.482 19.315C61.482 18.307 60.728 17.506 59.785 17.506C58.76 17.506 57.928 18.483 57.928 19.668C57.928 20.948 58.617 21.749 59.737 21.749C60.728 21.749 61.482 20.82 61.482 19.571V19.315ZM61.464 12.112C61.464 11.793 61.738 11.568 62.106 11.568C62.458 11.568 62.713 11.793 62.713 12.112V14.001H66.988C67.26 14.001 67.468 14.225 67.468 14.545C67.468 14.866 67.26 15.089 66.988 15.089H62.713V18.739C62.842 19.187 62.922 19.715 62.922 20.244C62.922 22.117 62.554 23.365 61.722 24.294C60.953 25.158 59.833 25.782 58.52 26.07C58.28 26.118 58.073 26.15 57.961 26.15C57.607 26.15 57.4 25.942 57.4 25.589C57.4 25.349 57.511 25.19 57.704 25.093C57.785 25.061 57.799 25.061 58.073 24.998C60.202 24.502 61.37 23.429 61.674 21.684C61.113 22.453 60.442 22.804 59.512 22.804C58.649 22.804 58.024 22.564 57.496 22.004C57.001 21.476 56.696 20.595 56.696 19.7C56.696 17.842 58.007 16.466 59.752 16.466C60.392 16.466 60.938 16.642 61.464 17.026V15.089H53.943C53.655 15.089 53.463 14.866 53.463 14.545C53.463 14.225 53.655 14.001 53.943 14.001H61.464V12.112Z" fill="white"/>
<path fill-rule="evenodd" clip-rule="evenodd" d="M61.482 19.315C61.482 18.307 60.728 17.506 59.785 17.506C58.76 17.506 57.928 18.483 57.928 19.668C57.928 20.948 58.617 21.749 59.737 21.749C60.728 21.749 61.482 20.82 61.482 19.571V19.315ZM61.464 12.112C61.464 11.793 61.738 11.568 62.106 11.568C62.458 11.568 62.713 11.793 62.713 12.112V14.001H66.988C67.26 14.001 67.468 14.225 67.468 14.545C67.468 14.866 67.26 15.089 66.988 15.089H62.713V18.739C62.842 19.187 62.922 19.715 62.922 20.244C62.922 22.117 62.554 23.365 61.722 24.294C60.953 25.158 59.833 25.782 58.52 26.07C58.28 26.118 58.073 26.15 57.961 26.15C57.607 26.15 57.4 25.942 57.4 25.589C57.4 25.349 57.511 25.19 57.704 25.093C57.785 25.061 57.799 25.061 58.073 24.998C60.202 24.502 61.37 23.429 61.674 21.684C61.113 22.453 60.442 22.804 59.512 22.804C58.649 22.804 58.024 22.564 57.496 22.004C57.001 21.476 56.696 20.595 56.696 19.7C56.696 17.842 58.007 16.466 59.752 16.466C60.392 16.466 60.938 16.642 61.464 17.026V15.089H53.943C53.655 15.089 53.463 14.866 53.463 14.545C53.463 14.225 53.655 14.001 53.943 14.001H61.464V12.112Z" stroke="white" stroke-width="0.65" stroke-miterlimit="3" stroke-linecap="square"/>
<path d="M78.041 22.581C77.672 22.261 77.112 22.053 76.616 22.053C75.768 22.053 75.127 22.581 75.127 23.269C75.127 24.069 76.12 24.565 77.721 24.565C78.169 24.565 78.265 24.565 78.873 24.485C78.697 23.509 78.473 22.965 78.041 22.581ZM73.639 13.569C73.335 13.569 73.127 13.329 73.127 13.009C73.127 12.688 73.335 12.465 73.639 12.465H81.082C81.706 12.465 82.106 12.705 82.106 13.073C82.106 13.233 82.01 13.425 81.866 13.585C81.738 13.729 81.738 13.729 81.193 14.065C79.961 14.882 78.232 16.099 75.64 18.019C76.809 17.602 78.041 17.394 79.289 17.394C80.41 17.394 81.402 17.602 82.25 18.003C83.562 18.611 84.219 19.684 84.219 21.156C84.219 23.877 81.754 25.574 77.832 25.574C76.376 25.574 75.447 25.35 74.775 24.853C74.23 24.454 73.911 23.813 73.911 23.142C73.911 21.957 75.096 21.028 76.616 21.028C78.473 21.028 79.705 22.181 80.025 24.245C81.963 23.669 82.891 22.661 82.891 21.188C82.891 19.363 81.562 18.403 79.049 18.403C77.672 18.403 75.928 18.724 74.855 19.155C74.375 19.363 73.863 19.716 73.158 20.34C72.918 20.548 72.774 20.612 72.599 20.612C72.262 20.612 71.958 20.292 71.958 19.939C71.958 19.748 72.055 19.556 72.262 19.395C73.911 18.067 78.568 14.609 80.121 13.569H73.639Z" fill="white"/>
<path fill-rule="evenodd" clip-rule="evenodd" d="M78.041 22.581C77.672 22.261 77.112 22.053 76.616 22.053C75.768 22.053 75.127 22.581 75.127 23.269C75.127 24.069 76.12 24.565 77.721 24.565C78.169 24.565 78.265 24.565 78.873 24.485C78.697 23.509 78.473 22.965 78.041 22.581ZM73.639 13.569C73.335 13.569 73.127 13.329 73.127 13.009C73.127 12.688 73.335 12.465 73.639 12.465H81.082C81.706 12.465 82.106 12.705 82.106 13.073C82.106 13.233 82.01 13.425 81.866 13.585C81.738 13.729 81.738 13.729 81.193 14.065C79.961 14.882 78.232 16.099 75.64 18.019C76.809 17.602 78.041 17.394 79.289 17.394C80.41 17.394 81.402 17.602 82.25 18.003C83.562 18.611 84.219 19.684 84.219 21.156C84.219 23.877 81.754 25.574 77.832 25.574C76.376 25.574 75.447 25.35 74.775 24.853C74.23 24.454 73.911 23.813 73.911 23.142C73.911 21.957 75.096 21.028 76.616 21.028C78.473 21.028 79.705 22.181 80.025 24.245C81.963 23.669 82.891 22.661 82.891 21.188C82.891 19.363 81.562 18.403 79.049 18.403C77.672 18.403 75.928 18.724 74.855 19.155C74.375 19.363 73.863 19.716 73.158 20.34C72.918 20.548 72.774 20.612 72.599 20.612C72.262 20.612 71.958 20.292 71.958 19.939C71.958 19.748 72.055 19.556 72.262 19.395C73.911 18.067 78.568 14.609 80.121 13.569H73.639Z" stroke="white" stroke-width="0.65" stroke-miterlimit="3" stroke-linecap="square"/>
</svg>
