<svg width="104" height="39" viewBox="0 0 104 39" fill="none" xmlns="http://www.w3.org/2000/svg">
<path d="M84.534 38.13H19.506C9.33098 38.13 1.00598 29.805 1.00598 19.63C1.00598 9.455 9.33098 1.13 19.506 1.13H84.534C94.709 1.13 103.034 9.455 103.034 19.63C103.034 29.805 94.709 38.13 84.534 38.13Z" fill="white"/>
<path d="M84.534 38.13H19.506C9.33098 38.13 1.00598 29.805 1.00598 19.63C1.00598 9.455 9.33098 1.13 19.506 1.13H84.534C94.709 1.13 103.034 9.455 103.034 19.63C103.034 29.805 94.709 38.13 84.534 38.13Z" stroke="#979797" stroke-miterlimit="3" stroke-linecap="square"/>
<path d="M24.224 22.334H20.591V25.632H24.224V22.334ZM24.224 18.188H20.591V21.278H24.224V18.188ZM24.224 14.347C24.224 14.123 24.08 13.995 23.855 13.995H20.91C20.687 13.995 20.591 14.107 20.591 14.347V17.132H24.224V14.347ZM26.305 25.632C26.577 25.632 26.769 25.872 26.769 26.208C26.769 26.528 26.577 26.768 26.305 26.768H18.285C18.014 26.768 17.806 26.528 17.806 26.191C17.806 25.872 18.014 25.632 18.285 25.632H19.406V14.075C19.406 13.291 19.807 12.8911 20.574 12.8911H24.192C24.96 12.8911 25.408 13.322 25.408 14.075V25.632H26.305ZM17.661 21.71C18.014 22.622 18.43 24.063 18.43 24.415C18.43 24.735 18.222 24.9431 17.901 24.9431C17.581 24.9431 17.469 24.815 17.357 24.335C17.133 23.438 16.957 22.862 16.621 21.838C16.589 21.742 16.573 21.678 16.573 21.614C16.573 21.374 16.813 21.182 17.117 21.182C17.373 21.182 17.501 21.309 17.661 21.71ZM13.596 21.854C13.596 22.223 13.163 24.351 12.892 25.296C12.827 25.535 12.812 25.552 12.795 25.6C12.699 25.808 12.539 25.92 12.347 25.92C12.011 25.92 11.739 25.68 11.739 25.376C11.739 25.279 11.755 25.231 11.835 24.959C12.139 23.919 12.411 22.686 12.523 21.902C12.587 21.502 12.731 21.357 13.052 21.357C13.388 21.357 13.596 21.55 13.596 21.854ZM12.747 19.325C13.275 18.765 13.5 18.5091 14.012 17.9171C13.42 17.1481 12.556 16.1561 12.011 15.6281C11.835 15.4351 11.771 15.323 11.771 15.147C11.771 14.844 12.043 14.571 12.331 14.571C12.571 14.571 12.667 14.6351 13.083 15.1151C13.628 14.4751 14.476 13.2591 14.94 12.4901C15.101 12.2181 15.261 12.106 15.484 12.106C15.805 12.106 16.077 12.362 16.077 12.65C16.077 13.066 15.084 14.427 13.739 15.851C14.012 16.187 14.46 16.732 14.7 17.084C15.309 16.348 15.692 15.836 16.685 14.523C16.893 14.267 17.053 14.155 17.245 14.155C17.533 14.155 17.821 14.443 17.821 14.747C17.821 14.939 17.758 15.052 17.438 15.483C16.221 17.036 15.292 18.108 14.172 19.229C14.764 19.181 15.212 19.149 15.404 19.133C16.557 19.037 16.653 19.037 17.133 18.989C16.861 18.429 16.749 18.188 16.701 18.076C16.653 17.965 16.637 17.9 16.637 17.82C16.637 17.564 16.861 17.356 17.133 17.356C17.421 17.356 17.518 17.452 17.789 17.965C18.254 18.797 18.83 20.222 18.83 20.51C18.83 20.798 18.59 20.9901 18.237 20.9901C17.966 20.9901 17.886 20.893 17.741 20.493C17.693 20.333 17.598 20.109 17.501 19.869L17.213 19.9171C16.765 19.9811 16.301 20.0291 15.837 20.0941C15.82 20.1091 15.788 20.109 15.74 20.109V26.752C15.74 27.04 15.517 27.232 15.181 27.232C14.828 27.232 14.604 27.04 14.604 26.752V20.237C13.42 20.35 12.331 20.445 12.139 20.445C11.787 20.445 11.563 20.205 11.563 19.869C11.563 19.629 11.69 19.437 11.915 19.373C12.011 19.341 12.123 19.341 12.491 19.325H12.747Z" fill="#979797"/>
<path fill-rule="evenodd" clip-rule="evenodd" d="M24.224 22.334H20.591V25.632H24.224V22.334ZM24.224 18.188H20.591V21.278H24.224V18.188ZM24.224 14.347C24.224 14.123 24.08 13.995 23.855 13.995H20.91C20.687 13.995 20.591 14.107 20.591 14.347V17.132H24.224V14.347ZM26.305 25.632C26.577 25.632 26.769 25.872 26.769 26.208C26.769 26.528 26.577 26.768 26.305 26.768H18.285C18.014 26.768 17.806 26.528 17.806 26.191C17.806 25.872 18.014 25.632 18.285 25.632H19.406V14.075C19.406 13.291 19.807 12.8911 20.574 12.8911H24.192C24.96 12.8911 25.408 13.322 25.408 14.075V25.632H26.305ZM17.661 21.71C18.014 22.622 18.43 24.063 18.43 24.415C18.43 24.735 18.222 24.9431 17.901 24.9431C17.581 24.9431 17.469 24.815 17.357 24.335C17.133 23.438 16.957 22.862 16.621 21.838C16.589 21.742 16.573 21.678 16.573 21.614C16.573 21.374 16.813 21.182 17.117 21.182C17.373 21.182 17.501 21.309 17.661 21.71ZM13.596 21.854C13.596 22.223 13.163 24.351 12.892 25.296C12.827 25.535 12.812 25.552 12.795 25.6C12.699 25.808 12.539 25.92 12.347 25.92C12.011 25.92 11.739 25.68 11.739 25.376C11.739 25.279 11.755 25.231 11.835 24.959C12.139 23.919 12.411 22.686 12.523 21.902C12.587 21.502 12.731 21.357 13.052 21.357C13.388 21.357 13.596 21.55 13.596 21.854ZM12.747 19.325C13.275 18.765 13.5 18.5091 14.012 17.9171C13.42 17.1481 12.556 16.1561 12.011 15.6281C11.835 15.4351 11.771 15.323 11.771 15.147C11.771 14.844 12.043 14.571 12.331 14.571C12.571 14.571 12.667 14.6351 13.083 15.1151C13.628 14.4751 14.476 13.2591 14.94 12.4901C15.101 12.2181 15.261 12.106 15.484 12.106C15.805 12.106 16.077 12.362 16.077 12.65C16.077 13.066 15.084 14.427 13.739 15.851C14.012 16.187 14.46 16.732 14.7 17.084C15.309 16.348 15.692 15.836 16.685 14.523C16.893 14.267 17.053 14.155 17.245 14.155C17.533 14.155 17.821 14.443 17.821 14.747C17.821 14.939 17.758 15.052 17.438 15.483C16.221 17.036 15.292 18.108 14.172 19.229C14.764 19.181 15.212 19.149 15.404 19.133C16.557 19.037 16.653 19.037 17.133 18.989C16.861 18.429 16.749 18.188 16.701 18.076C16.653 17.965 16.637 17.9 16.637 17.82C16.637 17.564 16.861 17.356 17.133 17.356C17.421 17.356 17.518 17.452 17.789 17.965C18.254 18.797 18.83 20.222 18.83 20.51C18.83 20.798 18.59 20.9901 18.237 20.9901C17.966 20.9901 17.886 20.893 17.741 20.493C17.693 20.333 17.598 20.109 17.501 19.869L17.213 19.9171C16.765 19.9811 16.301 20.0291 15.837 20.0941C15.82 20.1091 15.788 20.109 15.74 20.109V26.752C15.74 27.04 15.517 27.232 15.181 27.232C14.828 27.232 14.604 27.04 14.604 26.752V20.237C13.42 20.35 12.331 20.445 12.139 20.445C11.787 20.445 11.563 20.205 11.563 19.869C11.563 19.629 11.69 19.437 11.915 19.373C12.011 19.341 12.123 19.341 12.491 19.325H12.747Z" stroke="#979797" stroke-width="0.65" stroke-miterlimit="3" stroke-linecap="square"/>
<path d="M31.804 19.981C30.732 20.622 30.108 21.694 30.108 22.91C30.108 23.871 30.476 24.559 30.988 24.559C31.788 24.559 32.813 22.959 34.301 19.373C33.437 19.373 32.397 19.628 31.804 19.981ZM36.062 13.466C36.798 13.466 37.134 13.69 37.134 14.186C37.134 14.571 36.67 16.267 35.966 18.396C37.134 18.541 38.111 18.8441 39.871 19.5811C39.951 18.7491 39.999 18.092 39.984 17.82C39.968 17.259 39.968 16.923 39.968 16.843C39.968 16.475 40.192 16.267 40.592 16.267C40.848 16.267 41.073 16.379 41.152 16.572C41.232 16.715 41.232 16.748 41.232 17.244C41.232 17.996 41.168 19.2601 41.073 20.1411C42.817 21.0051 43.185 21.278 43.185 21.694C43.185 22.045 42.881 22.381 42.561 22.381C42.401 22.381 42.321 22.35 42.08 22.173C41.68 21.902 41.376 21.694 40.864 21.406C40.592 22.75 40.127 23.726 39.375 24.639C38.735 25.407 37.935 26.015 36.958 26.431C36.75 26.511 36.59 26.559 36.462 26.559C36.158 26.559 35.918 26.255 35.918 25.903C35.918 25.711 35.998 25.551 36.158 25.455C36.19 25.439 36.19 25.4391 36.527 25.2791C38.319 24.4151 39.312 22.99 39.711 20.765C38.335 20.061 36.783 19.565 35.55 19.437C34.782 21.517 33.741 23.583 32.908 24.655C32.317 25.439 31.596 25.872 30.908 25.872C29.755 25.872 28.923 24.655 28.923 22.974C28.923 20.861 30.188 19.245 32.365 18.604C33.116 18.38 33.757 18.3 34.734 18.284C35.293 16.812 35.758 15.21 35.758 14.747C35.758 14.619 35.694 14.571 35.502 14.571H30.668C30.396 14.571 30.188 14.331 30.188 14.027C30.188 13.707 30.396 13.466 30.668 13.466H36.062Z" fill="#979797"/>
<path fill-rule="evenodd" clip-rule="evenodd" d="M31.804 19.981C30.732 20.622 30.108 21.694 30.108 22.91C30.108 23.871 30.476 24.559 30.988 24.559C31.788 24.559 32.813 22.959 34.301 19.373C33.437 19.373 32.397 19.628 31.804 19.981ZM36.062 13.466C36.798 13.466 37.134 13.69 37.134 14.186C37.134 14.571 36.67 16.267 35.966 18.396C37.134 18.541 38.111 18.8441 39.871 19.5811C39.951 18.7491 39.999 18.092 39.984 17.82C39.968 17.259 39.968 16.923 39.968 16.843C39.968 16.475 40.192 16.267 40.592 16.267C40.848 16.267 41.073 16.379 41.152 16.572C41.232 16.715 41.232 16.748 41.232 17.244C41.232 17.996 41.168 19.2601 41.073 20.1411C42.817 21.0051 43.185 21.278 43.185 21.694C43.185 22.045 42.881 22.381 42.561 22.381C42.401 22.381 42.321 22.35 42.08 22.173C41.68 21.902 41.376 21.694 40.864 21.406C40.592 22.75 40.127 23.726 39.375 24.639C38.735 25.407 37.935 26.015 36.958 26.431C36.75 26.511 36.59 26.559 36.462 26.559C36.158 26.559 35.918 26.255 35.918 25.903C35.918 25.711 35.998 25.551 36.158 25.455C36.19 25.439 36.19 25.4391 36.527 25.2791C38.319 24.4151 39.312 22.99 39.711 20.765C38.335 20.061 36.783 19.565 35.55 19.437C34.782 21.517 33.741 23.583 32.908 24.655C32.317 25.439 31.596 25.872 30.908 25.872C29.755 25.872 28.923 24.655 28.923 22.974C28.923 20.861 30.188 19.245 32.365 18.604C33.116 18.38 33.757 18.3 34.734 18.284C35.293 16.812 35.758 15.21 35.758 14.747C35.758 14.619 35.694 14.571 35.502 14.571H30.668C30.396 14.571 30.188 14.331 30.188 14.027C30.188 13.707 30.396 13.466 30.668 13.466H36.062Z" stroke="#979797" stroke-width="0.65" stroke-miterlimit="3" stroke-linecap="square"/>
<path d="M49.148 17.677C49.244 17.933 49.532 18.813 49.789 19.661C50.22 21.102 50.237 21.1661 50.733 23.2791C50.765 23.4551 50.781 23.535 50.781 23.647C50.781 24.031 50.477 24.303 50.06 24.303C49.804 24.303 49.612 24.175 49.484 23.919C49.436 23.823 49.436 23.823 49.324 23.295C48.956 21.582 48.396 19.518 47.916 18.205C47.851 18.029 47.836 17.933 47.836 17.837C47.836 17.5 48.171 17.212 48.572 17.212C48.828 17.212 49.004 17.372 49.148 17.677ZM51.933 12.586C51.933 12.267 52.221 12.027 52.605 12.027C52.99 12.027 53.278 12.267 53.278 12.586V15.02H58.992C59.28 15.02 59.488 15.291 59.488 15.644C59.488 15.996 59.28 16.236 58.992 16.236H46.315C46.011 16.236 45.802 15.996 45.802 15.644C45.802 15.276 46.011 15.02 46.315 15.02H51.933V12.586ZM53.79 24.896C54.606 22.799 55.487 19.966 55.983 17.757C56.079 17.324 56.271 17.132 56.607 17.132C57.04 17.132 57.376 17.437 57.376 17.821C57.376 18.061 57.071 19.1981 56.544 20.8781C56.111 22.2541 55.502 23.904 55.071 24.896H59.537C59.825 24.896 60.048 25.167 60.048 25.504C60.048 25.856 59.825 26.113 59.537 26.113H45.802C45.514 26.113 45.306 25.856 45.306 25.504C45.306 25.152 45.514 24.896 45.802 24.896H53.79Z" fill="#979797"/>
<path fill-rule="evenodd" clip-rule="evenodd" d="M49.148 17.677C49.244 17.933 49.532 18.813 49.789 19.661C50.22 21.102 50.237 21.1661 50.733 23.2791C50.765 23.4551 50.781 23.535 50.781 23.647C50.781 24.031 50.477 24.303 50.06 24.303C49.804 24.303 49.612 24.175 49.484 23.919C49.436 23.823 49.436 23.823 49.324 23.295C48.956 21.582 48.396 19.518 47.916 18.205C47.851 18.029 47.836 17.933 47.836 17.837C47.836 17.5 48.171 17.212 48.572 17.212C48.828 17.212 49.004 17.372 49.148 17.677ZM51.933 12.586C51.933 12.267 52.221 12.027 52.605 12.027C52.99 12.027 53.278 12.267 53.278 12.586V15.02H58.992C59.28 15.02 59.488 15.291 59.488 15.644C59.488 15.996 59.28 16.236 58.992 16.236H46.315C46.011 16.236 45.802 15.996 45.802 15.644C45.802 15.276 46.011 15.02 46.315 15.02H51.933V12.586ZM53.79 24.896C54.606 22.799 55.487 19.966 55.983 17.757C56.079 17.324 56.271 17.132 56.607 17.132C57.04 17.132 57.376 17.437 57.376 17.821C57.376 18.061 57.071 19.1981 56.544 20.8781C56.111 22.2541 55.502 23.904 55.071 24.896H59.537C59.825 24.896 60.048 25.167 60.048 25.504C60.048 25.856 59.825 26.113 59.537 26.113H45.802C45.514 26.113 45.306 25.856 45.306 25.504C45.306 25.152 45.514 24.896 45.802 24.896H53.79Z" stroke="#979797" stroke-width="0.65" stroke-miterlimit="3" stroke-linecap="square"/>
<path d="M70.798 15.147C69.646 15.21 68.493 15.259 67.341 15.307C65.868 15.371 64.908 15.419 64.652 15.451C64.188 15.483 63.644 15.515 63.499 15.515C62.94 15.515 62.667 15.323 62.667 14.907C62.667 14.619 62.795 14.378 63.003 14.283C63.115 14.235 63.18 14.235 63.659 14.235C64.38 14.235 65.164 14.235 66.044 14.203C71.711 14.043 72.079 14.027 73.407 13.962C74.128 13.915 74.944 13.882 75.216 13.882C75.729 13.882 75.969 14.0581 75.969 14.4431C75.969 14.6991 75.857 14.907 75.664 15.002C75.569 15.051 75.552 15.067 75.168 15.083C73.552 15.227 72.559 15.435 71.711 15.851C69.534 16.908 68.285 18.812 68.285 21.085C68.285 22.11 68.573 22.83 69.262 23.502C69.886 24.111 71.278 24.623 73.136 24.927C73.6 25.007 73.792 25.183 73.792 25.567C73.792 25.952 73.535 26.208 73.184 26.208C72.688 26.208 70.927 25.759 70.078 25.423C67.997 24.59 67.021 23.198 67.021 21.005C67.021 18.796 68.381 16.603 70.414 15.515C70.67 15.387 70.75 15.355 71.295 15.131L70.798 15.147Z" fill="#979797"/>
<path d="M70.798 15.147C69.646 15.21 68.493 15.259 67.341 15.307C65.868 15.371 64.908 15.419 64.652 15.451C64.188 15.483 63.644 15.515 63.499 15.515C62.94 15.515 62.667 15.323 62.667 14.907C62.667 14.619 62.795 14.378 63.003 14.283C63.115 14.235 63.18 14.235 63.659 14.235C64.38 14.235 65.164 14.235 66.044 14.203C71.711 14.043 72.079 14.027 73.407 13.962C74.128 13.915 74.944 13.882 75.216 13.882C75.729 13.882 75.969 14.0581 75.969 14.4431C75.969 14.6991 75.857 14.907 75.664 15.002C75.569 15.051 75.552 15.067 75.168 15.083C73.552 15.227 72.559 15.435 71.711 15.851C69.534 16.908 68.285 18.812 68.285 21.085C68.285 22.11 68.573 22.83 69.262 23.502C69.886 24.111 71.278 24.623 73.136 24.927C73.6 25.007 73.792 25.183 73.792 25.567C73.792 25.952 73.535 26.208 73.184 26.208C72.688 26.208 70.927 25.759 70.078 25.423C67.997 24.59 67.021 23.198 67.021 21.005C67.021 18.796 68.381 16.603 70.414 15.515C70.67 15.387 70.75 15.355 71.295 15.131L70.798 15.147Z" stroke="#979797" stroke-width="0.65" stroke-miterlimit="3" stroke-linecap="square"/>
<path d="M86.222 23.358C85.854 23.039 85.294 22.83 84.798 22.83C83.95 22.83 83.309 23.358 83.309 24.046C83.309 24.847 84.302 25.343 85.903 25.343C86.351 25.343 86.447 25.343 87.055 25.263C86.878 24.287 86.655 23.743 86.222 23.358ZM81.821 14.346C81.517 14.346 81.308 14.107 81.308 13.787C81.308 13.466 81.517 13.242 81.821 13.242H89.264C89.888 13.242 90.288 13.482 90.288 13.85C90.288 14.01 90.192 14.203 90.048 14.363C89.92 14.506 89.92 14.506 89.375 14.843C88.143 15.659 86.414 16.876 83.822 18.796C84.99 18.38 86.222 18.172 87.471 18.172C88.591 18.172 89.583 18.38 90.432 18.781C91.744 19.388 92.401 20.462 92.401 21.934C92.401 24.655 89.936 26.351 86.014 26.351C84.558 26.351 83.629 26.128 82.957 25.631C82.412 25.231 82.093 24.59 82.093 23.919C82.093 22.734 83.278 21.8051 84.798 21.8051C86.655 21.8051 87.887 22.959 88.207 25.023C90.144 24.447 91.073 23.438 91.073 21.965C91.073 20.141 89.743 19.1801 87.231 19.1801C85.854 19.1801 84.11 19.501 83.037 19.933C82.557 20.141 82.044 20.493 81.34 21.118C81.1 21.326 80.956 21.389 80.781 21.389C80.444 21.389 80.14 21.069 80.14 20.717C80.14 20.525 80.236 20.333 80.444 20.173C82.093 18.844 86.75 15.387 88.303 14.346H81.821Z" fill="#979797"/>
<path fill-rule="evenodd" clip-rule="evenodd" d="M86.222 23.358C85.854 23.039 85.294 22.83 84.798 22.83C83.95 22.83 83.309 23.358 83.309 24.046C83.309 24.847 84.302 25.343 85.903 25.343C86.351 25.343 86.447 25.343 87.055 25.263C86.878 24.287 86.655 23.743 86.222 23.358ZM81.821 14.346C81.517 14.346 81.308 14.107 81.308 13.787C81.308 13.466 81.517 13.242 81.821 13.242H89.264C89.888 13.242 90.288 13.482 90.288 13.85C90.288 14.01 90.192 14.203 90.048 14.363C89.92 14.506 89.92 14.506 89.375 14.843C88.143 15.659 86.414 16.876 83.822 18.796C84.99 18.38 86.222 18.172 87.471 18.172C88.591 18.172 89.583 18.38 90.432 18.781C91.744 19.388 92.401 20.462 92.401 21.934C92.401 24.655 89.936 26.351 86.014 26.351C84.558 26.351 83.629 26.128 82.957 25.631C82.412 25.231 82.093 24.59 82.093 23.919C82.093 22.734 83.278 21.8051 84.798 21.8051C86.655 21.8051 87.887 22.959 88.207 25.023C90.144 24.447 91.073 23.438 91.073 21.965C91.073 20.141 89.743 19.1801 87.231 19.1801C85.854 19.1801 84.11 19.501 83.037 19.933C82.557 20.141 82.044 20.493 81.34 21.118C81.1 21.326 80.956 21.389 80.781 21.389C80.444 21.389 80.14 21.069 80.14 20.717C80.14 20.525 80.236 20.333 80.444 20.173C82.093 18.844 86.75 15.387 88.303 14.346H81.821Z" stroke="#979797" stroke-width="0.65" stroke-miterlimit="3" stroke-linecap="square"/>
</svg>
