<svg width="103" height="38" viewBox="0 0 103 38" fill="none" xmlns="http://www.w3.org/2000/svg">
<path d="M84.07 37.5499H19.04C8.87004 37.5499 0.540039 29.2299 0.540039 19.0499C0.540039 8.87993 8.86004 0.549927 19.04 0.549927H84.07C94.24 0.549927 102.57 8.86993 102.57 19.0499C102.57 29.2299 94.25 37.5499 84.07 37.5499Z" fill="#0D85B7"/>
<path d="M14.45 24.7C14.45 25.64 14.05 25.9799 12.96 25.9799C12.24 25.9799 11.46 25.9299 11.28 25.8699C11.04 25.7899 10.91 25.5799 10.91 25.2799C10.91 24.8999 11.13 24.67 11.49 24.67C11.55 24.67 11.59 24.67 11.71 24.7C11.9 24.72 12.38 24.7499 12.69 24.7499C13.09 24.7499 13.22 24.6199 13.22 24.2099V13.7699H11C10.71 13.7699 10.54 13.5499 10.54 13.1799C10.54 12.8399 10.73 12.5999 11 12.5999H16.22C16.51 12.5999 16.7 12.8399 16.7 13.1899C16.7 13.5399 16.51 13.7699 16.22 13.7699H14.46V24.7H14.45ZM20.07 24.1599C20.07 24.3499 20.01 24.46 19.75 24.7C18.63 25.74 17.24 26.6199 16.73 26.6199C16.44 26.6199 16.19 26.3499 16.19 26.0299C16.19 25.7599 16.29 25.66 16.73 25.42C17.34 25.12 18.35 24.3799 19.05 23.7599C19.18 23.6499 19.34 23.5799 19.5 23.5799C19.8 23.5799 20.07 23.8599 20.07 24.1599ZM23.52 14.8299C24.29 14.8299 24.67 15.2099 24.67 15.9699V22.1599C24.67 22.9099 24.29 23.2999 23.53 23.2999H18.55C17.81 23.2999 17.46 22.9299 17.46 22.1599V15.9699C17.46 15.2199 17.83 14.8299 18.55 14.8299H19.97C20.15 14.4499 20.39 13.7699 20.55 13.2499H17.25C16.99 13.2499 16.82 13.0299 16.82 12.7099C16.82 12.3899 17 12.1799 17.25 12.1799H25.17C25.44 12.1799 25.63 12.3899 25.63 12.7099C25.63 13.0299 25.44 13.2499 25.17 13.2499H21.68C21.55 13.7299 21.3 14.3999 21.09 14.8299H23.52ZM23.51 16.1599C23.51 15.9399 23.4 15.8199 23.17 15.8199H18.91C18.7 15.8199 18.59 15.9299 18.59 16.1599V17.3399H23.5V16.1599H23.51ZM18.59 18.2699V19.7599H23.5V18.2699H18.59ZM18.59 20.67V21.95C18.59 22.17 18.7 22.2999 18.91 22.2999H23.17C23.39 22.2999 23.51 22.19 23.51 21.95V20.67H18.59ZM23.06 23.8099C25.22 25.2199 25.64 25.5699 25.64 25.9699C25.64 26.2699 25.35 26.5599 25.05 26.5599C24.84 26.5599 24.76 26.5299 24.42 26.2399C23.86 25.7599 23.2 25.2799 22.18 24.5599C22 24.4499 21.92 24.2999 21.92 24.1299C21.92 23.8399 22.18 23.5499 22.43 23.5499C22.61 23.5499 22.72 23.5999 23.06 23.8099Z" fill="white" stroke="white" stroke-width="0.5" stroke-miterlimit="10"/>
<path d="M30.47 23.1C30.47 23.42 30.01 24.35 29.33 25.34C28.66 26.35 28.43 26.57 28.11 26.57C27.76 26.57 27.42 26.27 27.42 25.96C27.42 25.77 27.45 25.7 27.72 25.35C28.25 24.66 28.89 23.64 29.24 22.92C29.38 22.65 29.58 22.5 29.83 22.5C30.2 22.51 30.47 22.77 30.47 23.1ZM33.87 12.12C33.87 11.8 34.11 11.61 34.48 11.61C34.86 11.61 35.12 11.82 35.12 12.12V13.74H41.09C41.35 13.74 41.54 13.96 41.54 14.3C41.54 14.62 41.36 14.84 41.09 14.84H35.12V16.76H39.27C40.07 16.76 40.49 17.18 40.49 17.98V20.57C40.49 21.37 40.07 21.79 39.27 21.79H30.24C29.44 21.79 29.02 21.37 29.02 20.57V17.98C29.02 17.18 29.44 16.76 30.22 16.76H33.87V12.12V12.12ZM38.81 20.72C39.1 20.72 39.23 20.59 39.23 20.3V18.24C39.23 17.95 39.1 17.82 38.81 17.82H30.66C30.37 17.82 30.26 17.95 30.24 18.24V20.3C30.24 20.59 30.37 20.72 30.66 20.72H38.81ZM33.35 23.07C33.64 24.4 33.83 25.49 33.83 25.79C33.83 26.16 33.56 26.4 33.14 26.4C32.9 26.4 32.71 26.29 32.61 26.11C32.58 26.01 32.58 26.01 32.53 25.69C32.47 25.16 32.34 24.44 32.13 23.35C32.1 23.21 32.08 23.14 32.08 23.06C32.08 22.72 32.35 22.52 32.77 22.52C33.1 22.53 33.26 22.69 33.35 23.07ZM36.59 22.82C36.86 23.32 37.42 24.6 37.6 25.17C37.7 25.52 37.71 25.57 37.71 25.75C37.71 26.05 37.39 26.29 37.01 26.29C36.8 26.29 36.63 26.19 36.53 26C36.5 25.95 36.5 25.95 36.4 25.7C36.19 25.09 35.86 24.28 35.49 23.41C35.41 23.2 35.38 23.12 35.38 23.01C35.38 22.71 35.68 22.45 36.05 22.45C36.27 22.45 36.44 22.58 36.59 22.82ZM40.16 22.77C41.28 24.32 41.9 25.4 41.9 25.8C41.9 26.12 41.61 26.38 41.24 26.38C40.9 26.38 40.81 26.3 40.57 25.85C40.25 25.24 39.66 24.3 39.03 23.4C38.9 23.21 38.87 23.11 38.87 22.97C38.87 22.63 39.17 22.38 39.54 22.38C39.79 22.37 39.93 22.46 40.16 22.77Z" fill="white" stroke="white" stroke-width="0.5" stroke-miterlimit="10"/>
<path d="M45.86 14.96C45.56 14.96 45.33 14.72 45.33 14.42C45.33 14.1 45.55 13.86 45.86 13.86H49.62C50 13.25 50.34 12.71 50.49 12.44C50.65 12.12 50.83 11.99 51.07 11.99C51.45 11.99 51.71 12.2 51.71 12.49C51.71 12.68 51.55 12.99 50.99 13.87H56.29C56.58 13.87 56.8 14.11 56.8 14.41C56.8 14.75 56.59 14.97 56.29 14.97H50.24C49.52 16.01 48.83 16.87 48.06 17.74C49.15 17.05 49.98 16.76 50.85 16.76C52.15 16.76 52.96 17.45 53.31 18.84C55.31 18.18 57.1 17.67 57.41 17.67C57.73 17.67 57.99 17.94 57.99 18.29C57.99 18.48 57.88 18.66 57.7 18.74C57.65 18.77 57.6 18.79 57.35 18.85C56.52 19.03 54.66 19.55 53.49 19.94C53.55 20.68 53.62 21.67 53.62 22.1C53.62 22.6 53.43 22.84 53 22.84C52.54 22.84 52.37 22.66 52.37 22.18C52.35 21.01 52.35 20.95 52.34 20.37C49.71 21.38 48.61 22.21 48.61 23.16C48.61 23.64 48.98 24.02 49.6 24.22C50.1 24.38 51.12 24.46 52.35 24.46C53.31 24.46 55.47 24.36 56.34 24.3C56.42 24.28 56.48 24.28 56.53 24.28C56.88 24.28 57.14 24.54 57.14 24.89C57.14 25.24 56.93 25.48 56.6 25.51C56.15 25.57 54.26 25.64 53.21 25.64C51.03 25.64 49.56 25.5 48.76 25.19C47.83 24.84 47.34 24.18 47.34 23.29C47.34 22.25 47.98 21.37 49.34 20.54C50.12 20.06 50.68 19.79 52.21 19.21C51.91 18.17 51.44 17.72 50.64 17.72C49.52 17.72 47.47 18.84 46.14 20.19C45.92 20.4 45.79 20.48 45.61 20.48C45.34 20.48 45.05 20.18 45.05 19.9C45.05 19.68 45.1 19.6 45.42 19.28C46.73 17.94 47.65 16.78 48.89 14.97H45.86V14.96Z" fill="white" stroke="white" stroke-width="0.5" stroke-miterlimit="10"/>
<path d="M70.01 26.39C67.16 26.34 65.43 25.7999 64.17 24.5499C63.08 25.9399 62.41 26.5799 62.01 26.5799C61.71 26.5799 61.42 26.2799 61.42 25.9699C61.42 25.7299 61.48 25.6299 61.82 25.3799C62.35 24.9499 62.86 24.4799 63.55 23.7599V19.5999C63.55 19.3399 63.42 19.2299 63.17 19.2199H61.86C61.56 19.2199 61.35 18.9999 61.35 18.6799C61.35 18.3299 61.56 18.0899 61.86 18.0899H63.56C64.31 18.0899 64.71 18.4899 64.71 19.2399V23.7499C65.78 24.7099 67.66 25.2699 69.96 25.2999H76.31C76.58 25.2999 76.79 25.5199 76.79 25.8399C76.79 26.1599 76.58 26.3799 76.31 26.3799H70.01V26.39ZM63.29 12.6199C64.36 13.7999 64.78 14.3799 64.78 14.6799C64.78 14.9799 64.51 15.2399 64.17 15.2399C63.91 15.2399 63.83 15.1899 63.55 14.8199C62.96 14.0399 62.73 13.7799 61.95 12.8999C61.74 12.6599 61.69 12.5799 61.69 12.3999C61.69 12.1299 62.01 11.8199 62.3 11.8199C62.54 11.8399 62.65 11.9299 63.29 12.6199ZM69.45 18.5099H72.4V17.2599C71.63 17.2299 71.36 16.9899 71.36 16.3799V15.0399C71.36 14.4499 71.65 14.1599 72.24 14.1599H74.56C74.74 14.1599 74.8 14.0999 74.82 13.8999V13.2799C74.82 13.0999 74.74 13.0199 74.56 13.0199H71.46C71.25 13.0199 71.08 12.8099 71.08 12.5599C71.08 12.3199 71.26 12.1099 71.46 12.1099H75.11C75.64 12.1099 75.91 12.37 75.91 12.89V14.2C75.91 14.73 75.64 14.9999 75.11 14.9999H72.72C72.54 14.9999 72.43 15.0999 72.43 15.2699V15.9399C72.43 16.3599 72.53 16.39 74.1 16.39C75.24 16.39 75.4 16.3299 75.41 15.8099C75.41 15.5399 75.59 15.39 75.86 15.39C76.26 15.39 76.47 15.57 76.47 15.92C76.47 17.07 76.09 17.2799 73.97 17.2799H73.7H73.52V18.4999H75.7C75.94 18.4999 76.12 18.7099 76.12 18.9599C76.12 19.2299 75.94 19.42 75.7 19.42H73.52V20.9399H76.31C76.55 20.9399 76.71 21.13 76.71 21.42C76.71 21.71 76.55 21.8999 76.31 21.8999H65.55C65.31 21.8999 65.15 21.71 65.15 21.42C65.15 21.13 65.31 20.9399 65.55 20.9399H68.35V19.42H66.27C66.03 19.42 65.87 19.2299 65.87 18.9599C65.87 18.6899 66.05 18.4999 66.27 18.4999H68.35V17.2799C68.09 17.2999 67.97 17.2999 67.97 17.2999C66.13 17.2999 65.81 17.1599 65.81 16.3399V15.0299C65.81 14.4499 66.11 14.1499 66.69 14.1499H68.95C69.14 14.1499 69.24 14.0499 69.24 13.8599V13.2999C69.24 13.1199 69.13 13.0099 68.95 13.0099H65.91C65.69 13.0099 65.51 12.7999 65.51 12.5499C65.51 12.3099 65.69 12.0999 65.91 12.0999H69.5C70.04 12.0999 70.32 12.3599 70.32 12.8999V14.2C70.32 14.74 70.05 14.9999 69.5 14.9999H67.23C67.01 14.9999 66.91 15.0999 66.91 15.3199V15.9799C66.91 16.3199 67.09 16.3799 68.03 16.3799C69.55 16.3799 69.71 16.3299 69.73 15.7999C69.73 15.5599 69.92 15.42 70.21 15.42C70.58 15.42 70.8 15.5999 70.8 15.8999C70.8 16.3799 70.62 16.8799 70.4 17.0199C70.21 17.1299 69.95 17.1999 69.47 17.2399V18.5099H69.45ZM69.75 22.7399C69.75 23.0299 69.56 23.2 68.68 23.7C67.66 24.29 66.79 24.6799 66.52 24.6799C66.22 24.6799 65.98 24.4399 65.98 24.1199C65.98 23.8499 66.08 23.7399 66.52 23.5799C67.11 23.3399 68.23 22.7499 68.87 22.3299C69 22.2499 69.09 22.2199 69.21 22.2199C69.5 22.2099 69.75 22.4599 69.75 22.7399ZM69.45 19.4399V20.9599H72.4V19.4399H69.45ZM72.49 23.2C72.23 23.06 72.11 22.9099 72.11 22.7199C72.11 22.4499 72.37 22.1799 72.62 22.1799C72.94 22.1799 74.06 22.7199 75.31 23.4899C75.74 23.7499 75.74 23.7499 75.82 23.8099C75.98 23.9499 76.06 24.1099 76.06 24.2699C76.06 24.5399 75.79 24.8099 75.52 24.8099C75.36 24.8099 75.3 24.7899 74.96 24.5899C74.51 24.3199 74.21 24.1399 74.03 24.0499L72.49 23.2Z" fill="white" stroke="white" stroke-width="0.5" stroke-miterlimit="10"/>
<path d="M81.61 12.01C81.61 11.71 81.87 11.48 82.22 11.48C82.57 11.48 82.85 11.7 82.85 12.01V14.57H84.58C84.87 14.57 85.08 14.83 85.08 15.16C85.08 15.5 84.87 15.74 84.58 15.74H82.85V18.94L83.28 18.8C83.63 18.67 83.78 18.62 84 18.56C84.4 18.42 84.45 18.4 84.58 18.4C84.9 18.4 85.17 18.67 85.17 19.01C85.17 19.23 85.01 19.43 84.72 19.55C84.38 19.69 84.06 19.82 82.85 20.24V25.38C82.85 26.26 82.5 26.56 81.49 26.56C79.97 26.56 79.59 26.42 79.59 25.86C79.59 25.51 79.81 25.28 80.15 25.28C80.2 25.28 80.25 25.28 80.37 25.3C80.64 25.35 80.93 25.36 81.11 25.36C81.49 25.36 81.62 25.25 81.62 24.91V20.62C80.82 20.88 79.99 21.08 79.81 21.08C79.46 21.08 79.2 20.81 79.2 20.41C79.2 20.17 79.33 19.98 79.54 19.88C79.6 19.85 79.6 19.85 79.99 19.77C80.49 19.66 80.65 19.61 81.62 19.32V15.73H79.67C79.4 15.73 79.19 15.49 79.19 15.15C79.19 14.8 79.4 14.56 79.67 14.56H81.62V12.01H81.61ZM90.48 18.94C91.01 21.55 92.11 23.52 94 25.23C94.24 25.44 94.32 25.6 94.32 25.82C94.32 26.2 94.03 26.51 93.68 26.51C93.42 26.51 93.3 26.43 92.9 26.05C91.06 24.26 89.84 21.84 89.35 18.94H87.19C87.03 21.55 86.49 23.63 85.54 25.37C85.01 26.31 84.82 26.52 84.47 26.52C84.12 26.52 83.81 26.23 83.81 25.9C83.81 25.74 83.81 25.74 84.19 25.07C85.42 22.89 86.02 20.44 86.02 17.66V13.48C86.02 12.68 86.4 12.28 87.19 12.28H92.23C93.02 12.28 93.43 12.7 93.43 13.48V17.75C93.43 18.55 93.03 18.93 92.21 18.93H90.48V18.94ZM91.82 17.87C92.08 17.87 92.2 17.74 92.2 17.49V13.76C92.2 13.5 92.07 13.38 91.82 13.38H87.56C87.3 13.38 87.21 13.49 87.21 13.76V17.63V17.77V17.87H91.82Z" fill="white" stroke="white" stroke-width="0.5" stroke-miterlimit="10"/>
</svg>
