<svg width="106" height="43" viewBox="0 0 106 43" fill="none" xmlns="http://www.w3.org/2000/svg">
<g clip-path="url(#clip0)">
<path d="M86.43 42.22H20.96C11.95 42.22 0 33.46 0 20.51C0 9.23 8.28 0 19.57 0H85.04C96.32 0 106 10.63 106 21.91C106 33.19 97.71 42.22 86.43 42.22Z" fill="#0D85B7"/>
<path d="M84.47 37.89H19.44C9.27 37.89 0.940002 29.57 0.940002 19.39C0.940002 9.22 9.26 0.889999 19.44 0.889999H84.47C94.64 0.889999 102.97 9.21 102.97 19.39C102.97 29.56 94.64 37.89 84.47 37.89Z" fill="#0D85B7" stroke="#0D85B7" stroke-miterlimit="10"/>
<path d="M40.89 27.33H27L33.95 14L40.89 27.33ZM28.73 26.27H39.17L33.95 16.2L28.73 26.27Z" fill="white" stroke="white" stroke-width="0.5" stroke-miterlimit="10"/>
<path d="M50.74 20.67C52.85 21.02 54.05 22.16 54.05 23.81C54.05 26.08 52.23 27.41 49.07 27.41H45.92C44.94 27.41 44.45 26.91 44.45 25.94V15.91C44.45 14.93 44.95 14.44 45.92 14.44H48.59C49.65 14.44 50.67 14.58 51.3 14.82C52.63 15.33 53.41 16.39 53.41 17.69C53.41 19.26 52.55 20.22 50.74 20.6V20.67V20.67ZM48.45 20.03C50.61 20.03 51.84 19.25 51.84 17.87C51.84 16.96 51.44 16.33 50.61 15.98C50.05 15.74 49.31 15.61 48.55 15.61H46.2C46.01 15.61 45.91 15.71 45.91 15.9V20.03H48.45ZM45.91 25.81C45.91 26.05 46.02 26.16 46.26 26.16H48.97C49.72 26.16 50.46 26.05 50.97 25.84C51.88 25.49 52.43 24.69 52.43 23.71C52.43 22.77 52.03 22.22 50.96 21.71C50.35 21.41 49.41 21.21 48.56 21.21H45.91V25.81Z" fill="white" stroke="white" stroke-width="0.5" stroke-miterlimit="10"/>
<path d="M59 26.99C59 27.34 58.7 27.6 58.28 27.6C57.85 27.6 57.54 27.34 57.54 26.99V15.99C57.54 14.97 58.05 14.44 59.09 14.44H65.51C65.83 14.44 66.07 14.71 66.07 15.08C66.07 15.45 65.83 15.72 65.51 15.72H59.36C59.12 15.72 58.99 15.85 58.99 16.07V20.12H64.64C64.94 20.12 65.18 20.38 65.18 20.73C65.18 21.1 64.96 21.35 64.64 21.35H58.99V26.99H59Z" fill="white" stroke="white" stroke-width="0.5" stroke-miterlimit="10"/>
<path d="M70.31 26.99C70.31 27.34 70.01 27.6 69.59 27.6C69.17 27.6 68.87 27.34 68.87 26.99V14.86C68.87 14.51 69.17 14.25 69.59 14.25C70.01 14.25 70.31 14.51 70.31 14.86V20.01H77.42V14.86C77.42 14.51 77.72 14.25 78.14 14.25C78.56 14.25 78.86 14.51 78.86 14.86V26.99C78.86 27.34 78.56 27.6 78.14 27.6C77.72 27.6 77.42 27.34 77.42 26.99V21.29H70.31V26.99Z" fill="white" stroke="white" stroke-width="0.5" stroke-miterlimit="10"/>
</g>
<defs>
<clipPath id="clip0">
<rect width="106" height="42.22" fill="white"/>
</clipPath>
</defs>
</svg>
