<svg width="106" height="43" viewBox="0 0 106 43" fill="none" xmlns="http://www.w3.org/2000/svg">
<g clip-path="url(#clip0)">
<path d="M86.43 42.22H20.96C11.95 42.22 0 33.46 0 20.51C0 9.23 8.28 0 19.57 0H85.04C96.32 0 106 10.63 106 21.91C106 33.19 97.71 42.22 86.43 42.22Z" fill="#0D85B7"/>
<path d="M84.47 37.89H19.44C9.27 37.89 0.940002 29.57 0.940002 19.39C0.940002 9.22 9.26 0.889999 19.44 0.889999H84.47C94.64 0.889999 102.97 9.21 102.97 19.39C102.97 29.56 94.64 37.89 84.47 37.89Z" fill="#0D85B7" stroke="#0D85B7" stroke-miterlimit="10"/>
<path d="M39.34 26.21H25.44L32.39 12.88L39.34 26.21ZM27.17 25.16H37.61L32.39 15.09L27.17 25.16Z" fill="white" stroke="white" stroke-width="0.5" stroke-miterlimit="10"/>
<path d="M44.24 25.88C44.24 26.23 43.94 26.49 43.52 26.49C43.09 26.49 42.78 26.23 42.78 25.88V14.88C42.78 13.86 43.29 13.33 44.33 13.33H50.75C51.07 13.33 51.31 13.6 51.31 13.97C51.31 14.34 51.07 14.61 50.75 14.61H44.6C44.36 14.61 44.23 14.74 44.23 14.96V19.01H49.88C50.18 19.01 50.42 19.27 50.42 19.62C50.42 19.99 50.2 20.24 49.88 20.24H44.23V25.88H44.24Z" fill="white" stroke="white" stroke-width="0.5" stroke-miterlimit="10"/>
<path d="M63.33 21.46C63.33 21.25 63.22 21.16 63.01 21.16H60.05C59.73 21.16 59.51 20.9 59.51 20.54C59.51 20.19 59.73 19.95 60.05 19.95H63.46C64.29 19.95 64.72 20.37 64.72 21.2V25.95C64.72 26.27 64.48 26.51 64.13 26.51C63.81 26.51 63.62 26.33 63.57 26.01L63.38 24.57C62.44 25.85 61.12 26.54 59.57 26.54C55.87 26.54 53.42 23.87 53.42 19.85C53.42 15.9 56.05 13.1 59.74 13.1C61.28 13.1 62.51 13.42 63.47 14.06C63.98 14.4 64.14 14.6 64.14 14.91C64.14 15.28 63.79 15.63 63.44 15.63C63.28 15.63 63.15 15.58 62.98 15.44C62.13 14.74 61.11 14.42 59.78 14.42C58.36 14.42 57.04 15.01 56.2 16.02C55.42 16.96 55.02 18.26 55.02 19.89C55.02 21.15 55.29 22.24 55.84 23.12C56.64 24.4 58.11 25.22 59.67 25.22C61.11 25.22 62.34 24.52 63.35 23.12V21.46H63.33Z" fill="white" stroke="white" stroke-width="0.5" stroke-miterlimit="10"/>
<path d="M69.84 25.88C69.84 26.23 69.54 26.49 69.12 26.49C68.7 26.49 68.4 26.23 68.4 25.88V13.74C68.4 13.39 68.7 13.13 69.12 13.13C69.54 13.13 69.84 13.39 69.84 13.74V18.89H76.95V13.74C76.95 13.39 77.25 13.13 77.67 13.13C78.09 13.13 78.39 13.39 78.39 13.74V25.87C78.39 26.22 78.09 26.48 77.67 26.48C77.25 26.48 76.95 26.22 76.95 25.87V20.17H69.84V25.88Z" fill="white" stroke="white" stroke-width="0.5" stroke-miterlimit="10"/>
</g>
<defs>
<clipPath id="clip0">
<rect width="106" height="42.22" fill="white"/>
</clipPath>
</defs>
</svg>
