<svg width="29" height="10" viewBox="0 0 29 10" fill="none" xmlns="http://www.w3.org/2000/svg">
<path d="M7.12 0.869997L7.35 0.539997C7.37 0.499997 7.41 0.449997 7.47 0.449997C7.52 0.449997 7.57 0.489997 7.62 0.519997L8.18 0.939997C8.23 0.979997 8.28 1.01 8.28 1.08C8.28 1.17 8.23 1.21 7.93 1.38V7.37C7.93 7.58 7.96 8.51 7.96 8.7C7.96 8.92 7.8 9.01 7.44 9.01C7.21 9.01 7.21 8.9 7.21 8.79V8.18H0.76V8.61C0.76 8.9 0.76 9.02 0.25 9.02C0.04 9.02 0 8.95 0 8.83C0 8.72 0.04 7.66 0.04 7.44V1.66C0.04 0.929997 0.02 0.679997 0 0.469997L0.87 0.879997H7.12V0.869997ZM2.63 1.15H0.76V7.9H7.21V1.15H5.38V5.17C5.38 5.48 5.39 5.53 5.79 5.53C6.21 5.53 6.32 5.52 6.39 5.4C6.49 5.23 6.66 4.52 6.68 4.43L6.8 4.45C6.81 5.28 6.8 5.38 6.95 5.49C7.1 5.6 7.15 5.65 7.15 5.79C7.15 6.25 6.63 6.27 5.86 6.27C4.96 6.27 4.68 6.27 4.68 5.54V1.15H3.33V2.7C3.33 4.04 3.18 5.75 1.06 6.7L0.98 6.59C2.13 5.6 2.63 4.76 2.63 2.71V1.15Z" fill="#231815"/>
<path d="M16.67 2.63999L16.91 2.28999C16.94 2.23999 16.98 2.19999 17.03 2.19999C17.07 2.19999 17.13 2.22999 17.17 2.25999L17.75 2.68999C17.83 2.74999 17.86 2.77999 17.86 2.83999C17.86 2.94999 17.62 3.07999 17.5 3.12999V6.91999C17.5 7.11999 17.52 8.01999 17.52 8.19999C17.52 8.72999 17.48 9.06999 16.4 9.17999C16.39 8.76999 16.24 8.61999 15.09 8.28999V8.15999L16.5 8.19999C16.77 8.20999 16.78 8.15999 16.78 7.94999V6.40999H11.53C11.13 8.19999 9.83001 8.95999 9.39001 9.21999L9.32001 9.11999C10.94 7.53999 11 6.03999 11 4.35999V3.61999C11 3.36999 11 3.31999 10.99 2.87999C10.52 3.27999 10.06 3.63999 9.42001 3.94999L9.34001 3.85999C11.23 2.14999 12.02 0.859995 12.31 0.00999451L13.09 0.249995C13.34 0.329994 13.36 0.399995 13.36 0.439995C13.36 0.569995 13.19 0.589995 12.96 0.599995C12.83 0.789995 12.79 0.849994 12.65 1.03999H14.61L14.92 0.689995C14.97 0.629995 15.01 0.599995 15.06 0.599995C15.12 0.599995 15.19 0.659995 15.21 0.679995L15.85 1.26999C15.89 1.30999 15.93 1.35999 15.93 1.41999C15.93 1.53999 15.82 1.57999 15.36 1.59999C14.98 1.98999 14.58 2.39999 14.31 2.63999H16.67V2.63999ZM13.97 2.63999C14.21 2.22999 14.5 1.66999 14.64 1.30999H12.45C12.1 1.76999 11.87 2.01999 11.42 2.47999L11.78 2.63999H13.97ZM13.82 4.63999H11.71C11.69 5.32999 11.67 5.61999 11.59 6.12999H13.82V4.63999V4.63999ZM11.71 2.91999V4.36999H13.82V2.91999H11.71ZM14.52 2.91999V4.36999H16.77V2.91999H14.52ZM16.77 4.63999H14.52V6.12999H16.77V4.63999Z" fill="#231815"/>
<path d="M19.08 6.98C19.84 5.55 20.37 4.21 20.64 2.64H20.18C19.91 2.64 19.69 2.65 19.39 2.68L19.25 2.32C19.53 2.34 19.85 2.36 20.24 2.36H20.69V1.12C20.69 0.88 20.67 0.36 20.64 0L21.43 0.11C21.53 0.12 21.67 0.14 21.67 0.26C21.67 0.37 21.58 0.42 21.32 0.51V2.36H21.56L21.83 1.96C21.86 1.92 21.89 1.88 21.95 1.88C22 1.88 22.04 1.9 22.08 1.94L22.58 2.4C22.64 2.46 22.65 2.49 22.65 2.53C22.65 2.64 22.53 2.64 22.46 2.64H21.33V3.28C21.81 3.51 22.47 3.97 22.47 4.62C22.47 4.88 22.34 5.06 22.15 5.06C21.97 5.06 21.95 4.96 21.84 4.62C21.77 4.39 21.57 3.88 21.32 3.53V7.4C21.32 7.63 21.35 8.64 21.35 8.85C21.35 8.95 21.35 9.17 20.87 9.17C20.69 9.17 20.65 9.11 20.65 8.92C20.65 8.69 20.68 7.69 20.68 7.48V4.44C20.48 4.99 20.05 6.09 19.17 7.04L19.08 6.98ZM25.63 2.38V4.92H26.49L26.86 4.36C26.9 4.31 26.93 4.27 26.99 4.27C27.04 4.27 27.08 4.31 27.13 4.35L27.81 4.95C27.85 4.98 27.89 5.02 27.89 5.08C27.89 5.19 27.75 5.19 27.7 5.19H25.63V8.23H26.97L27.34 7.67C27.38 7.61 27.42 7.58 27.47 7.58C27.53 7.58 27.56 7.61 27.61 7.66L28.31 8.27C28.35 8.3 28.38 8.34 28.38 8.4C28.38 8.51 28.24 8.51 28.19 8.51H23.21C22.87 8.51 22.74 8.52 22.42 8.55L22.28 8.19C22.58 8.21 22.88 8.23 23.27 8.23H24.91V5.2H23.76C23.41 5.2 23.23 5.22 22.98 5.24L22.84 4.88C23.14 4.9 23.44 4.92 23.82 4.92H24.91V2.38H23.59C23.25 2.38 23.19 2.39 22.8 2.42L22.66 2.06C22.95 2.08 23.26 2.1 23.65 2.1H26.74L27.11 1.54C27.14 1.49 27.19 1.46 27.24 1.46C27.3 1.46 27.33 1.49 27.38 1.53L28.08 2.15C28.11 2.18 28.16 2.22 28.16 2.28C28.16 2.39 28.01 2.39 27.96 2.39H25.63V2.38ZM24.19 0.04C24.78 0.21 26.08 0.69 26.08 1.54C26.08 1.84 25.88 1.96 25.71 1.96C25.52 1.96 25.51 1.94 25.15 1.38C24.87 0.93 24.57 0.54 24.13 0.15L24.19 0.04Z" fill="#231815"/>
</svg>
